UPS 6 - UPS 6 - SDT 6 - Subpainel 3 - PowerStrip 5 - STS 3 = 0.9992642003225723 - 
UPS 6 - UPS 6 - SDT 6 - Subpainel 1 - PowerStrip 5 - STS 3 = 0.9992604015287208 - 
UPS 6 - UPS 6 - SDT 3 - Subpainel 3 - PowerStrip 5 - STS 3 = 0.9992566514987137 - 
UPS 6 - UPS 6 - SDT 3 - Subpainel 1 - PowerStrip 5 - STS 3 = 0.9992528526207751 - 

UPS 3 - UPS 3 - SDT 6 - Subpainel 3 - PowerStrip 2 - STS 7 = 0.9994437916979397 - 
UPS 3 - UPS 3 - SDT 6 - Subpainel 1 - PowerStrip 2 - STS 7 = 0.9994399919038 - 
UPS 3 - UPS 3 - SDT 3 - Subpainel 3 - PowerStrip 2 - STS 7 = 0.9994362407797454 - 
UPS 3 - UPS 3 - SDT 3 - Subpainel 1 - PowerStrip 2 - STS 7 = 0.9994324414115461 - 

UPS 7 - UPS 7 - SDT 6 - Subpainel 3 - PowerStrip 9 - STS 1 = 0.9995516389808244 - 
UPS 7 - UPS 7 - SDT 6 - Subpainel 1 - PowerStrip 9 - STS 1 = 0.9995478385823647 - 
UPS 7 - UPS 7 - SDT 3 - Subpainel 3 - PowerStrip 9 - STS 1 = 0.9995440875890998 - 
UPS 7 - UPS 7 - SDT 3 - Subpainel 1 - PowerStrip 9 - STS 1 = 0.9995402875551822 - 

UPS 7 - UPS 7 - SDT 6 - Subpainel 3 - PowerStrip 0 - STS 1 = 0.9995382755497514 - 
UPS 7 - UPS 7 - SDT 6 - Subpainel 1 - PowerStrip 0 - STS 1 = 0.9995344754940227 - 
UPS 7 - UPS 7 - SDT 3 - Subpainel 3 - PowerStrip 0 - STS 1 = 0.9995307244188881 - 
UPS 7 - UPS 7 - SDT 3 - Subpainel 1 - PowerStrip 0 - STS 1 = 0.9995269244233429 - 

UPS 0 - UPS 0 - SDT 6 - Subpainel 3 - PowerStrip 5 - STS 6 = 0.9992571775888978 - 
UPS 0 - UPS 0 - SDT 6 - Subpainel 1 - PowerStrip 5 - STS 6 = 0.9992533785179073 - 
UPS 0 - UPS 0 - SDT 3 - Subpainel 3 - PowerStrip 5 - STS 6 = 0.9992496284977724 - 
UPS 0 - UPS 0 - SDT 3 - Subpainel 1 - PowerStrip 5 - STS 6 = 0.9992458293684422 - 

tempo total: 32 segundos