UPS 9 - SDT 6 - Subpainel 6 - PowerStrip 3 = 0.999636252482922 -- 
UPS 9 - SDT 3 - Subpainel 6 - PowerStrip 3 = 0.9996286981434125 -- 
UPS 1 - SDT 6 - Subpainel 6 - PowerStrip 3 = 0.9996028295534507 -- 
UPS 1 - SDT 3 - Subpainel 6 - PowerStrip 3 = 0.9995952751503885 -- 

UPS 9 - SDT 6 - Subpainel 2 - PowerStrip 7 = 0.9995905177270864 -- 
UPS 9 - SDT 3 - Subpainel 2 - PowerStrip 7 = 0.9995829635067782 -- 
UPS 1 - SDT 6 - Subpainel 2 - PowerStrip 7 = 0.9995570948811341 -- 
UPS 1 - SDT 3 - Subpainel 2 - PowerStrip 7 = 0.9995495406746768 -- 

UPS 9 - SDT 6 - Subpainel 7 - PowerStrip 6 = 0.9996144195452048 -- 
UPS 9 - SDT 3 - Subpainel 7 - PowerStrip 6 = 0.9996068651853774 -- 
UPS 1 - SDT 6 - Subpainel 7 - PowerStrip 6 = 0.9995809965355635 -- 
UPS 1 - SDT 3 - Subpainel 7 - PowerStrip 6 = 0.9995734422266964 -- 

UPS 9 - SDT 6 - Subpainel 9 - PowerStrip 6 = 0.9996184460967902 -- 
UPS 9 - SDT 3 - Subpainel 9 - PowerStrip 6 = 0.9996108917677097 -- 
UPS 1 - SDT 6 - Subpainel 9 - PowerStrip 6 = 0.9995850231447432 -- 
UPS 1 - SDT 3 - Subpainel 9 - PowerStrip 6 = 0.9995774687281518 -- 

UPS 9 - SDT 6 - Subpainel 4 - PowerStrip 9 = 0.9995947151889983 -- 
UPS 9 - SDT 3 - Subpainel 4 - PowerStrip 9 = 0.9995871610650862 -- 
UPS 1 - SDT 6 - Subpainel 4 - PowerStrip 9 = 0.9995612922573758 -- 
UPS 1 - SDT 3 - Subpainel 4 - PowerStrip 9 = 0.9995537378328126 -- 

tempo total: 5 segundos