UPS 9 - UPS 9 - SDT 1 - SDT 1 - Subpainel 3 - PowerStrip 9 - STS 4 = 0.9997794333519584
UPS 9 - UPS 9 - SDT 1 - SDT 1 - Subpainel 3 - PowerStrip 2 - STS 4 = 0.9997777754847122
UPS 9 - UPS 9 - SDT 1 - SDT 1 - Subpainel 1 - PowerStrip 9 - STS 4 = 0.9997775008637907
UPS 9 - UPS 9 - SDT 1 - SDT 1 - Subpainel 1 - PowerStrip 2 - STS 4 = 0.9997758443498909

UPS 8 - UPS 8 - SDT 4 - SDT 4 - Subpainel 3 - PowerStrip 9 - STS 9 = 0.9998121246296733
UPS 8 - UPS 8 - SDT 4 - SDT 4 - Subpainel 3 - PowerStrip 2 - STS 9 = 0.9998104651008963
UPS 8 - UPS 8 - SDT 4 - SDT 4 - Subpainel 1 - PowerStrip 9 - STS 9 = 0.9998101921517448
UPS 8 - UPS 8 - SDT 4 - SDT 4 - Subpainel 1 - PowerStrip 2 - STS 9 = 0.999808535261858

UPS 9 - UPS 9 - SDT 3 - SDT 3 - Subpainel 3 - PowerStrip 9 - STS 6 = 0.9996565718894813
UPS 9 - UPS 9 - SDT 3 - SDT 3 - Subpainel 3 - PowerStrip 2 - STS 6 = 0.999654914216469
UPS 9 - UPS 9 - SDT 3 - SDT 3 - Subpainel 1 - PowerStrip 9 - STS 6 = 0.999654640292856
UPS 9 - UPS 9 - SDT 3 - SDT 3 - Subpainel 1 - PowerStrip 2 - STS 6 = 0.9996529896770822

UPS 6 - UPS 6 - SDT 8 - SDT 8 - Subpainel 3 - PowerStrip 9 - STS 5 = 0.999762784247643
UPS 6 - UPS 6 - SDT 8 - SDT 8 - Subpainel 3 - PowerStrip 2 - STS 5 = 0.9997611261537118
UPS 6 - UPS 6 - SDT 8 - SDT 8 - Subpainel 1 - PowerStrip 9 - STS 5 = 0.999760850114649
UPS 6 - UPS 6 - SDT 8 - SDT 8 - Subpainel 1 - PowerStrip 2 - STS 5 = 0.9997591930559818

UPS 8 - UPS 8 - SDT 3 - SDT 3 - Subpainel 3 - PowerStrip 9 - STS 3 = 0.999660131459457
UPS 8 - UPS 8 - SDT 3 - SDT 3 - Subpainel 3 - PowerStrip 2 - STS 3 = 0.9996584721669337
UPS 8 - UPS 8 - SDT 3 - SDT 3 - Subpainel 1 - PowerStrip 9 - STS 3 = 0.9996581959104767
UPS 8 - UPS 8 - SDT 3 - SDT 3 - Subpainel 1 - PowerStrip 2 - STS 3 = 0.9996565419490187

tempo total: 6 minutos 34 segundos