UPS 2; UPS 2; SDT 1; SDT 1; Subpainel 8; Subpainel 8; PowerStrip 9; STS 0; 0.9998484833219645
UPS 2; UPS 2; SDT 1; SDT 1; Subpainel 8; Subpainel 8; PowerStrip 2; STS 0; 0.9998468536797342
UPS 2; UPS 2; SDT 1; SDT 1; Subpainel 8; Subpainel 8; PowerStrip 9; STS 9; 0.9998354058546942
UPS 2; UPS 2; SDT 1; SDT 1; Subpainel 8; Subpainel 8; PowerStrip 2; STS 9; 0.999833776586257

UPS 7; UPS 7; SDT 3; SDT 3; Subpainel 2; Subpainel 2; PowerStrip 9; STS 0; 0.9998484924288548
UPS 7; UPS 7; SDT 3; SDT 3; Subpainel 2; Subpainel 2; PowerStrip 2; STS 0; 0.9998468632448704
UPS 7; UPS 7; SDT 3; SDT 3; Subpainel 2; Subpainel 2; PowerStrip 9; STS 9; 0.9998354149125935
UPS 7; UPS 7; SDT 3; SDT 3; Subpainel 2; Subpainel 2; PowerStrip 2; STS 9; 0.9998337848597616

UPS 1; UPS 1; SDT 3; SDT 3; Subpainel 9; Subpainel 9; PowerStrip 9; STS 0; 0.9998485151581904
UPS 1; UPS 1; SDT 3; SDT 3; Subpainel 9; Subpainel 9; PowerStrip 2; STS 0; 0.9998468858800157
UPS 1; UPS 1; SDT 3; SDT 3; Subpainel 9; Subpainel 9; PowerStrip 9; STS 9; 0.9998354378400252
UPS 1; UPS 1; SDT 3; SDT 3; Subpainel 9; Subpainel 9; PowerStrip 2; STS 9; 0.9998338084604589

UPS 7; UPS 7; SDT 2; SDT 2; Subpainel 3; Subpainel 3; PowerStrip 9; STS 0; 0.9998484984949519
UPS 7; UPS 7; SDT 2; SDT 2; Subpainel 3; Subpainel 3; PowerStrip 2; STS 0; 0.9998468691104948
UPS 7; UPS 7; SDT 2; SDT 2; Subpainel 3; Subpainel 3; PowerStrip 9; STS 9; 0.9998354211259989
UPS 7; UPS 7; SDT 2; SDT 2; Subpainel 3; Subpainel 3; PowerStrip 2; STS 9; 0.9998337917233849

UPS 4; UPS 4; SDT 8; SDT 8; Subpainel 6; Subpainel 6; PowerStrip 9; STS 0; 0.9998484953378329
UPS 4; UPS 4; SDT 8; SDT 8; Subpainel 6; Subpainel 6; PowerStrip 2; STS 0; 0.9998468658685163
UPS 4; UPS 4; SDT 8; SDT 8; Subpainel 6; Subpainel 6; PowerStrip 9; STS 9; 0.9998354178711396
UPS 4; UPS 4; SDT 8; SDT 8; Subpainel 6; Subpainel 6; PowerStrip 2; STS 9; 0.9998337886299848

