UPS 4 - UPS 4 - SDT 6 - Subpainel 3 - PowerStrip 5 - STS 5 = 0.9996810397827322 -- 0.9997111080310894 = 0.9997173880217041 -- 0.9997220750969665 = 0.9997251855979975 -- 0.9997264399963445 = 0.9997287586093104 -- 0.9997291898047364
UPS 4 - UPS 4 - SDT 6 - Subpainel 1 - PowerStrip 5 - STS 5 = 0.9996788727451876 -- 0.999709101773017 = 0.9997153887910168 -- 0.9997201020515307 = 0.9997232303022711 -- 0.9997244926400505 = 0.9997268275903274 -- 0.9997272611333702
UPS 4 - UPS 4 - SDT 3 - Subpainel 3 - PowerStrip 5 - STS 5 = 0.9996767260474928 -- 0.9997071183890821 = 0.9997133730827602 -- 0.9997181548239134 = 0.999721300610071 -- 0.9997225701170629 = 0.9997249193813772 -- 0.9997253563178289
UPS 4 - UPS 4 - SDT 3 - Subpainel 1 - PowerStrip 5 - STS 5 = 0.9996745559856546 -- 0.9997051110929672 = 0.9997114192051696 -- 0.9997161821210644 = 0.9997193451670254 -- 0.9997206226106836 = 0.9997229888950532 -- 0.999723426983417

UPS 3 - UPS 3 - SDT 6 - Subpainel 3 - PowerStrip 3 - STS 9 = 0.9997293308814958 -- 0.9997668657563205 = 0.9997761074638303 -- 0.9997819131764916 = 0.999784700278363 -- 0.9997862013657107 = 0.9997881594583757 -- 0.9997885782676803
UPS 3 - UPS 3 - SDT 6 - Subpainel 1 - PowerStrip 3 - STS 9 = 0.9997271036622917 -- 0.9997648572352124 = 0.9997740972317206 -- 0.9997799394428696 = 0.9997827436964308 -- 0.9997842534206872 = 0.9997862282782588 -- 0.9997866488829039
UPS 3 - UPS 3 - SDT 3 - Subpainel 3 - PowerStrip 3 - STS 9 = 0.999724901011089 -- 0.9997628746870674 = 0.9997721160759085 -- 0.9997779923663195 = 0.9997808115664124 -- 0.9997823306987599 = 0.9997843197398986 -- 0.9997847445910846
UPS 3 - UPS 3 - SDT 3 - Subpainel 1 - PowerStrip 3 - STS 9 = 0.9997226700161339 -- 0.9997608669641393 = 0.999770107955593 -- 0.9997760192268856 = 0.9997788545547592 -- 0.9997803832300256 = 0.9997823873428263 -- 0.9997828150287337

UPS 6 - UPS 6 - SDT 6 - Subpainel 3 - PowerStrip 5 - STS 7 = 0.9996245423817287 -- 0.9996769096313523 = 0.9996873716191075 -- 0.999695485387133 = 0.9996990568633388 -- 0.9997011529620411 = 0.9997038307018998 -- 0.9997043982581405
UPS 6 - UPS 6 - SDT 6 - Subpainel 1 - PowerStrip 5 - STS 7 = 0.9996222954451416 -- 0.9996749017892771 = 0.9996853665844018 -- 0.9996935091741522 = 0.9996970992861506 -- 0.9996992054709715 = 0.9997018959938871 -- 0.9997024678584928
UPS 6 - UPS 6 - SDT 3 - Subpainel 3 - PowerStrip 5 - STS 7 = 0.9996200757304816 -- 0.9996729195741048 = 0.9996833773437793 -- 0.9996915655247434 = 0.9996951675600797 -- 0.9996972835116926 = 0.9996999894806247 -- 0.9997005640676396
UPS 6 - UPS 6 - SDT 3 - Subpainel 1 - PowerStrip 5 - STS 7 = 0.9996178294909198 -- 0.9996709119741347 = 0.9996813644503821 -- 0.9996895917866907 = 0.9996932096105657 -- 0.9996953361163097 = 0.9996980560592201 -- 0.9996986344652911

UPS 5 - UPS 5 - SDT 6 - Subpainel 3 - PowerStrip 6 - STS 5 = 0.9996748278974869 -- 0.9997109036314821 = 0.9997183662059783 -- 0.9997239724344041 = 0.9997271240782641 -- 0.9997286004657954 = 0.9997309456893559 -- 0.9997314075835584
UPS 5 - UPS 5 - SDT 6 - Subpainel 1 - PowerStrip 6 - STS 5 = 0.9996726285010465 -- 0.9997088948878913 = 0.9997163636089752 -- 0.9997220000546052 = 0.9997251683544532 -- 0.9997266530562652 = 0.9997290147006274 -- 0.9997294779544085
UPS 5 - UPS 5 - SDT 3 - Subpainel 3 - PowerStrip 6 - STS 5 = 0.9996704612854563 -- 0.9997069134057593 = 0.999714388455533 -- 0.9997200527757294 = 0.9997232376613644 -- 0.9997247307188014 = 0.9997271077486481 -- 0.9997275738139841
UPS 5 - UPS 5 - SDT 3 - Subpainel 1 - PowerStrip 6 - STS 5 = 0.9996682663745484 -- 0.9997049053550049 = 0.9997123847695231 -- 0.9997180795462973 = 0.9997212818090773 -- 0.9997227832014391 = 0.9997251749427628 -- 0.9997256442373572

UPS 8 - UPS 8 - SDT 6 - Subpainel 3 - PowerStrip 1 - STS 0 = 0.9997695623791063 -- 0.9997901766649321 = 0.9997953692819774 -- 0.9997985757694053 = 0.9998009316832595 -- 0.9998017963129078 = 0.9998035837722382 -- 0.999803800916755
UPS 8 - UPS 8 - SDT 6 - Subpainel 1 - PowerStrip 1 - STS 0 = 0.9997674068041946 -- 0.9997881677642987 = 0.9997933677119626 -- 0.9997966029005644 = 0.9997989784328389 -- 0.9997998492396531 = 0.9998015560522218 -- 0.9998019453400439
UPS 8 - UPS 8 - SDT 3 - Subpainel 3 - PowerStrip 1 - STS 0 = 0.9997652813740318 -- 0.9997861862347107 = 0.9997913992409699 -- 0.9997946557063836 = 0.9997970488503718 -- 0.9997979263574639 = 0.9997996483262691 -- 0.9997999667358608
UPS 8 - UPS 8 - SDT 3 - Subpainel 1 - PowerStrip 1 - STS 0 = 0.9997631256061409 -- 0.9997841783261324 = 0.9997894193108576 -- 0.9997926827865672 = 0.9997950937330621 -- 0.9997959784273525 = 0.9997977156239377 -- 0.9997980370421243

