UPS 1 - UPS 1 - SDT 2 - SDT 2 - Subpainel 8 - Subpainel 8 - PowerStrip 9 - STS 0 = 0.9998471035678108
UPS 1 - UPS 1 - SDT 2 - SDT 2 - Subpainel 8 - Subpainel 8 - PowerStrip 2 - STS 0 = 0.9998454626480948
UPS 1 - UPS 1 - SDT 2 - SDT 2 - Subpainel 8 - Subpainel 8 - PowerStrip 9 - STS 9 = 0.999833934515801
UPS 1 - UPS 1 - SDT 2 - SDT 2 - Subpainel 8 - Subpainel 8 - PowerStrip 2 - STS 9 = 0.9998322911271044

UPS 3 - UPS 3 - SDT 3 - SDT 3 - Subpainel 6 - Subpainel 6 - PowerStrip 9 - STS 0 = 0.9998468988240337
UPS 3 - UPS 3 - SDT 3 - SDT 3 - Subpainel 6 - Subpainel 6 - PowerStrip 2 - STS 0 = 0.9998452550955318
UPS 3 - UPS 3 - SDT 3 - SDT 3 - Subpainel 6 - Subpainel 6 - PowerStrip 9 - STS 9 = 0.9998337291738478
UPS 3 - UPS 3 - SDT 3 - SDT 3 - Subpainel 6 - Subpainel 6 - PowerStrip 2 - STS 9 = 0.999832089364963

UPS 8 - UPS 8 - SDT 9 - SDT 9 - Subpainel 3 - Subpainel 3 - PowerStrip 9 - STS 0 = 0.9998470555337438
UPS 8 - UPS 8 - SDT 9 - SDT 9 - Subpainel 3 - Subpainel 3 - PowerStrip 2 - STS 0 = 0.9998454182523749
UPS 8 - UPS 8 - SDT 9 - SDT 9 - Subpainel 3 - Subpainel 3 - PowerStrip 9 - STS 9 = 0.9998338888691057
UPS 8 - UPS 8 - SDT 9 - SDT 9 - Subpainel 3 - Subpainel 3 - PowerStrip 2 - STS 9 = 0.9998322479396163

UPS 3 - UPS 3 - SDT 9 - SDT 9 - Subpainel 2 - Subpainel 2 - PowerStrip 9 - STS 0 = 0.9998468273955646
UPS 3 - UPS 3 - SDT 9 - SDT 9 - Subpainel 2 - Subpainel 2 - PowerStrip 2 - STS 0 = 0.9998450975815018
UPS 3 - UPS 3 - SDT 9 - SDT 9 - Subpainel 2 - Subpainel 2 - PowerStrip 9 - STS 9 = 0.9998336592630934
UPS 3 - UPS 3 - SDT 9 - SDT 9 - Subpainel 2 - Subpainel 2 - PowerStrip 2 - STS 9 = 0.9998320140117287

UPS 1 - UPS 1 - SDT 6 - SDT 6 - Subpainel 0 - Subpainel 0 - PowerStrip 9 - STS 0 = 0.9998470947799011
UPS 1 - UPS 1 - SDT 6 - SDT 6 - Subpainel 0 - Subpainel 0 - PowerStrip 2 - STS 0 = 0.9998454539886259
UPS 1 - UPS 1 - SDT 6 - SDT 6 - Subpainel 0 - Subpainel 0 - PowerStrip 9 - STS 9 = 0.9998339246269751
UPS 1 - UPS 1 - SDT 6 - SDT 6 - Subpainel 0 - Subpainel 0 - PowerStrip 2 - STS 9 = 0.9998322813158238

