UPS 9 - SDT 6 - Subpainel 9 - PowerStrip 3 -- 120 = 0.9945286233414168 -- 0.994537353701743 -- 48 = 0.9978084586746055 -- 0.9978098618382399 -- 24 = 0.9989037307128655 -- 0.9989040821089403 -- 8 = 0.9996344660272827 -- 0.999634505123526
UPS 9 - SDT 3 - Subpainel 9 - PowerStrip 3 -- 120 = 0.9944154439845736 -- 0.9944247254609005 -- 48 = 0.9977631516975405 -- 0.9977646440378692 -- 24 = 0.9988810713864983 -- 0.9988814450983418 -- 8 = 0.9996269117651173 -- 0.9996269533024507
UPS 1 - SDT 6 - Subpainel 9 - PowerStrip 3 -- 120 = 0.9940305800950343 -- 0.9940403937212042 -- 48 = 0.9976083931649066 -- 0.9976099715720872 -- 24 = 0.9988035560253347 -- 0.9988039514072425 -- 8 = 0.9996010429752348 -- 0.999601086957999
UPS 1 - SDT 3 - Subpainel 9 - PowerStrip 3 -- 120 = 0.9939174034404554 -- 0.9939278230873784 -- 48 = 0.9975630865746371 -- 0.9975647626840162 -- 24 = 0.9987808969259862 -- 0.9987813167623937 -- 8 = 0.9995934886993705 -- 0.9995935353807169

UPS 9 - SDT 6 - Subpainel 0 - PowerStrip 2 -- 120 = 0.9941296659270769 -- 0.9941402537504967 -- 48 = 0.9976486833759022 -- 0.997650386241342 -- 24 = 0.9988238113236514 -- 0.9988242377702576 -- 8 = 0.9996078192770818 -- 0.999607866701146
UPS 9 - SDT 3 - Subpainel 0 - PowerStrip 2 -- 120 = 0.9940164871227056 -- 0.9940276707621772 -- 48 = 0.9976033768073641 -- 0.997605175488637 -- 24 = 0.9988011523329589 -- 0.998801602705445 -- 8 = 0.999600264935527 -- 0.9996003150389974
UPS 1 - SDT 6 - Subpainel 0 - PowerStrip 2 -- 120 = 0.9936316280722787 -- 0.9936434942334879 -- 48 = 0.9974486184553296 -- 0.9974505279030955 -- 24 = 0.9987236370863923 -- 0.9987241152885795 -- 8 = 0.9995743962318275 -- 0.9995744494281505
UPS 1 - SDT 3 - Subpainel 0 - PowerStrip 2 -- 120 = 0.9935184467046028 -- 0.9935309655691931 -- 48 = 0.9974033113672848 -- 0.9974053258749879 -- 24 = 0.9987009775955746 -- 0.9987014822215015 -- 8 = 0.9995668418488962 -- 0.9995668979869359

UPS 9 - SDT 6 - Subpainel 0 - PowerStrip 9 -- 120 = 0.9941784796562277 -- 0.9941888215314938 -- 48 = 0.9976682276463419 -- 0.9976698907507163 -- 24 = 0.9988335864000552 -- 0.9988340028822604 -- 8 = 0.9996110782818749 -- 0.999611124616566
UPS 9 - SDT 3 - Subpainel 0 - PowerStrip 9 -- 120 = 0.9940652979551878 -- 0.994076231191344 -- 48 = 0.9976229207468212 -- 0.9976246789066123 -- 24 = 0.9988109276640283 -- 0.9988113675537609 -- 8 = 0.9996035238209847 -- 0.9996035728473445
UPS 1 - SDT 6 - Subpainel 0 - PowerStrip 9 -- 120 = 0.9936804388774937 -- 0.9936920360736033 -- 48 = 0.9974681623190644 -- 0.9974700281719323 -- 24 = 0.9987334119487261 -- 0.9987338793333227 -- 8 = 0.9995776552851601 -- 0.9995777072542612
UPS 1 - SDT 3 - Subpainel 0 - PowerStrip 9 -- 120 = 0.9935672594259296 -- 0.9935795029710762 -- 48 = 0.9974228553783486 -- 0.9974248254839876 -- 24 = 0.9987107528664545 -- 0.9987112462614445 -- 8 = 0.9995701009160362 -- 0.9995701558108502

UPS 9 - SDT 6 - Subpainel 6 - PowerStrip 2 -- 120 = 0.9946365899750204 -- 0.9946448265394611 -- 48 = 0.9978516883801234 -- 0.9978530124049042 -- 24 = 0.9989253528206574 -- 0.9989256842137759 -- 8 = 0.9996416749121863 -- 0.999641711806668
UPS 9 - SDT 3 - Subpainel 6 - PowerStrip 2 -- 120 = 0.9945234107619094 -- 0.9945321862068055 -- 48 = 0.9978063810864704 -- 0.9978077921613866 -- 24 = 0.998902693315527 -- 0.9989030466566833 -- 8 = 0.9996341204618212 -- 0.9996341598150295
UPS 1 - SDT 6 - Subpainel 6 - PowerStrip 2 -- 120 = 0.9941385461083541 -- 0.9941478127798468 -- 48 = 0.9976516224220631 -- 0.9976531130515384 -- 24 = 0.9988251780727847 -- 0.9988255513039767 -- 8 = 0.9996082517307953 -- 0.9996082933147423
UPS 1 - SDT 3 - Subpainel 6 - PowerStrip 2 -- 120 = 0.9940253693863679 -- 0.99403523002214 -- 48 = 0.9976063159634586 -- 0.9976079022735526 -- 24 = 0.998802518955512 -- 0.9988029162186942 -- 8 = 0.9996006976419326 -- 0.999600741803093

UPS 9 - SDT 6 - Subpainel 9 - PowerStrip 0 -- 120 = 0.9944584384500156 -- 0.9944674879894032 -- 48 = 0.9977803521525176 -- 0.9977818073614613 -- 24 = 0.9988896722406059 -- 0.9988900366294583 -- 8 = 0.999629778761777 -- 0.9996298193120062
UPS 9 - SDT 3 - Subpainel 9 - PowerStrip 0 -- 120 = 0.9943452611038766 -- 0.9943548687815917 -- 48 = 0.9977350455617193 -- 0.997736590682043 -- 24 = 0.9988670131949776 -- 0.998867400083665 -- 8 = 0.9996222245186455 -- 0.999622267530248
UPS 1 - SDT 6 - Subpainel 9 - PowerStrip 0 -- 120 = 0.9939603975444326 -- 0.9939705639972828 -- 48 = 0.9975802873076006 -- 0.997581922741439 -- 24 = 0.9987894979731294 -- 0.9987899075647518 -- 8 = 0.9995963558553825 -- 0.9995964013739097
UPS 1 - SDT 3 - Subpainel 9 - PowerStrip 0 -- 120 = 0.9938472185062583 -- 0.9938579998929655 -- 48 = 0.9975349800566713 -- 0.9975367147663766 -- 24 = 0.9987668385728476 -- 0.998767273048478 -- 8 = 0.9995888013487623 -- 0.9995888496972142

