UPS 2 - UPS 2 - SDT 5 - SDT 5 - Subpainel 8 - Subpainel 8 - PowerStrip 9 - STS 0 = 0.9996968738198411 - 
UPS 2 - UPS 2 - SDT 5 - SDT 5 - Subpainel 8 - Subpainel 8 - PowerStrip 2 - STS 0 = 0.9996936155178511 - 
UPS 2 - UPS 2 - SDT 5 - SDT 5 - Subpainel 8 - Subpainel 8 - PowerStrip 9 - STS 9 = 0.9996707263914224 - 
UPS 2 - UPS 2 - SDT 5 - SDT 5 - Subpainel 8 - Subpainel 8 - PowerStrip 2 - STS 9 = 0.9996674686140219 - 

UPS 1 - UPS 1 - SDT 4 - SDT 4 - Subpainel 2 - Subpainel 2 - PowerStrip 9 - STS 0 = 0.9996969512147822 - 
UPS 1 - UPS 1 - SDT 4 - SDT 4 - Subpainel 2 - Subpainel 2 - PowerStrip 2 - STS 0 = 0.99969368913841 - 
UPS 1 - UPS 1 - SDT 4 - SDT 4 - Subpainel 2 - Subpainel 2 - PowerStrip 9 - STS 9 = 0.9996707967969528 - 
UPS 1 - UPS 1 - SDT 4 - SDT 4 - Subpainel 2 - Subpainel 2 - PowerStrip 2 - STS 9 = 0.9996675387025955 - 

UPS 7 - UPS 7 - SDT 5 - SDT 5 - Subpainel 2 - Subpainel 2 - PowerStrip 9 - STS 0 = 0.99969690129757 - 
UPS 7 - UPS 7 - SDT 5 - SDT 5 - Subpainel 2 - Subpainel 2 - PowerStrip 2 - STS 0 = 0.9996936435029158 - 
UPS 7 - UPS 7 - SDT 5 - SDT 5 - Subpainel 2 - Subpainel 2 - PowerStrip 9 - STS 9 = 0.9996707546639888 - 
UPS 7 - UPS 7 - SDT 5 - SDT 5 - Subpainel 2 - Subpainel 2 - PowerStrip 2 - STS 9 = 0.9996674960169429 - 

UPS 5 - UPS 5 - SDT 0 - SDT 0 - Subpainel 2 - Subpainel 2 - PowerStrip 9 - STS 0 = 0.9996968159398728 - 
UPS 5 - UPS 5 - SDT 0 - SDT 0 - Subpainel 2 - Subpainel 2 - PowerStrip 2 - STS 0 = 0.9996935572986675 - 
UPS 5 - UPS 5 - SDT 0 - SDT 0 - Subpainel 2 - Subpainel 2 - PowerStrip 9 - STS 9 = 0.9996706681318993 - 
UPS 5 - UPS 5 - SDT 0 - SDT 0 - Subpainel 2 - Subpainel 2 - PowerStrip 2 - STS 9 = 0.9996674109656059 - 

UPS 2 - UPS 2 - SDT 1 - SDT 1 - Subpainel 0 - Subpainel 0 - PowerStrip 9 - STS 0 = 0.999696848394329 - 
UPS 2 - UPS 2 - SDT 1 - SDT 1 - Subpainel 0 - Subpainel 0 - PowerStrip 2 - STS 0 = 0.9996935910383635 - 
UPS 2 - UPS 2 - SDT 1 - SDT 1 - Subpainel 0 - Subpainel 0 - PowerStrip 9 - STS 9 = 0.9996707018636257 - 
UPS 2 - UPS 2 - SDT 1 - SDT 1 - Subpainel 0 - Subpainel 0 - PowerStrip 2 - STS 9 = 0.9996674435347014 - 


tempo total: 131 minutos 47 segundos