UPS 7 - UPS 7 - SDT 0 - SDT 0 - Subpainel 9 - Subpainel 9 - PowerStrip 9 - STS 0 = 0.9998445501573358 ---- 0.999845980289481
UPS 7 - UPS 7 - SDT 0 - SDT 0 - Subpainel 9 - Subpainel 9 - PowerStrip 2 - STS 0 = 0.9998428862804187 ---- 0.9998443300843769
UPS 7 - UPS 7 - SDT 0 - SDT 0 - Subpainel 9 - Subpainel 9 - PowerStrip 9 - STS 9 = 0.9998312434819685 ---- 1.0013732117299599
UPS 7 - UPS 7 - SDT 0 - SDT 0 - Subpainel 9 - Subpainel 9 - PowerStrip 2 - STS 9 = 0.9998295749840643 ---- 0.9998310970616932

UPS 9 - UPS 9 - SDT 4 - SDT 4 - Subpainel 2 - Subpainel 2 - PowerStrip 9 - STS 0 = 0.9998449949858202 ---- 0.9998461704391467
UPS 9 - UPS 9 - SDT 4 - SDT 4 - Subpainel 2 - Subpainel 2 - PowerStrip 2 - STS 0 = 0.999843348606974 ---- 0.9998445296406188
UPS 9 - UPS 9 - SDT 4 - SDT 4 - Subpainel 2 - Subpainel 2 - PowerStrip 9 - STS 9 = 0.9998317051983109 ---- 0.9998329434783014
UPS 9 - UPS 9 - SDT 4 - SDT 4 - Subpainel 2 - Subpainel 2 - PowerStrip 2 - STS 9 = 0.9998300567372385 ---- 0.9998312979169766

UPS 3 - UPS 3 - SDT 6 - SDT 6 - Subpainel 2 - Subpainel 2 - PowerStrip 9 - STS 0 = 0.9998438763914975 ---- 0.9998456899141607
UPS 3 - UPS 3 - SDT 6 - SDT 6 - Subpainel 2 - Subpainel 2 - PowerStrip 2 - STS 0 = 0.9998422102186025 ---- 0.9998440369553223
UPS 3 - UPS 3 - SDT 6 - SDT 6 - Subpainel 2 - Subpainel 2 - PowerStrip 9 - STS 9 = 0.9998305640312223 ---- 0.9998324595663051
UPS 3 - UPS 3 - SDT 6 - SDT 6 - Subpainel 2 - Subpainel 2 - PowerStrip 2 - STS 9 = 0.9998288863009247 ---- 0.9998308077216714

UPS 4 - UPS 4 - SDT 4 - SDT 4 - Subpainel 6 - Subpainel 6 - PowerStrip 9 - STS 0 = 0.9998445447584788 ---- 0.9998459777049592
UPS 4 - UPS 4 - SDT 4 - SDT 4 - Subpainel 6 - Subpainel 6 - PowerStrip 2 - STS 0 = 0.9998428753460739 ---- 0.999844324995283
UPS 4 - UPS 4 - SDT 4 - SDT 4 - Subpainel 6 - Subpainel 6 - PowerStrip 9 - STS 9 = 0.9998312222107338 ---- 0.9998327446817344
UPS 4 - UPS 4 - SDT 4 - SDT 4 - Subpainel 6 - Subpainel 6 - PowerStrip 2 - STS 9 = 0.9998295834710453 ---- 0.9998311024849851

UPS 8 - UPS 8 - SDT 0 - SDT 0 - Subpainel 5 - Subpainel 5 - PowerStrip 9 - STS 0 = 0.9998444080144029 ---- 0.9998459246748557
UPS 8 - UPS 8 - SDT 0 - SDT 0 - Subpainel 5 - Subpainel 5 - PowerStrip 2 - STS 0 = 0.9998427574803708 ---- 0.999842201201255
UPS 8 - UPS 8 - SDT 0 - SDT 0 - Subpainel 5 - Subpainel 5 - PowerStrip 9 - STS 9 = 0.9998311029497788 ---- 0.9998326909178424
UPS 8 - UPS 8 - SDT 0 - SDT 0 - Subpainel 5 - Subpainel 5 - PowerStrip 2 - STS 9 = 0.9998294493119997 ---- 0.9998310466819093

O melhor resultado foi UPS 7 - UPS 7 - SDT 0 - SDT 0 - Subpainel 9 - Subpainel 9 - PowerStrip 9 - STS 9 = 1.0013732117299599
O melhor resultado foi UPS 7 - UPS 7 - SDT 0 - SDT 0 - Subpainel 9 - Subpainel 9 - PowerStrip 9 - STS 9 = 1.0013732117299599
CONSTRUÍDO COM SUCESSO (tempo total: 623 minutos 58 segundos)