UPS 1 - UPS 1 - SDT 4 - SDT 4 - Subpainel 5 - Subpainel 5 - PowerStrip 9 - STS 0 =  ---- 0.9998465164958852
UPS 1 - UPS 1 - SDT 4 - SDT 4 - Subpainel 5 - Subpainel 5 - PowerStrip 2 - STS 0 =  ---- 0.9998448687590799
UPS 1 - UPS 1 - SDT 4 - SDT 4 - Subpainel 5 - Subpainel 5 - PowerStrip 9 - STS 9 =  ---- 0.9998332855180062
UPS 1 - UPS 1 - SDT 4 - SDT 4 - Subpainel 5 - Subpainel 5 - PowerStrip 2 - STS 9 =  ---- 0.9998316377619418

UPS 0 - UPS 0 - SDT 9 - SDT 9 - Subpainel 0 - Subpainel 0 - PowerStrip 9 - STS 0 =  ---- 0.9998465068520813
UPS 0 - UPS 0 - SDT 9 - SDT 9 - Subpainel 0 - Subpainel 0 - PowerStrip 2 - STS 0 =  ---- 0.9998448591225747
UPS 0 - UPS 0 - SDT 9 - SDT 9 - Subpainel 0 - Subpainel 0 - PowerStrip 9 - STS 9 =  ---- 0.9998332774877584
UPS 0 - UPS 0 - SDT 9 - SDT 9 - Subpainel 0 - Subpainel 0 - PowerStrip 2 - STS 9 =  ---- 0.9998316311532442

UPS 4 - UPS 4 - SDT 8 - SDT 8 - Subpainel 8 - Subpainel 8 - PowerStrip 9 - STS 0 =  ---- 0.9998465179702241
UPS 4 - UPS 4 - SDT 8 - SDT 8 - Subpainel 8 - Subpainel 8 - PowerStrip 2 - STS 0 =  ---- 0.9998448699058117
UPS 4 - UPS 4 - SDT 8 - SDT 8 - Subpainel 8 - Subpainel 8 - PowerStrip 9 - STS 9 =  ---- 0.9998332888310555
UPS 4 - UPS 4 - SDT 8 - SDT 8 - Subpainel 8 - Subpainel 8 - PowerStrip 2 - STS 9 =  ---- 0.9998316406101431

UPS 8 - UPS 8 - SDT 5 - SDT 5 - Subpainel 3 - Subpainel 3 - PowerStrip 9 - STS 0 =  ---- 0.9998465525836114
UPS 8 - UPS 8 - SDT 5 - SDT 5 - Subpainel 3 - Subpainel 3 - PowerStrip 2 - STS 0 =  ---- 0.9998449029407958
UPS 8 - UPS 8 - SDT 5 - SDT 5 - Subpainel 3 - Subpainel 3 - PowerStrip 9 - STS 9 =  ---- 0.9998333211698779
UPS 8 - UPS 8 - SDT 5 - SDT 5 - Subpainel 3 - Subpainel 3 - PowerStrip 2 - STS 9 =  ---- 0.9998316734598506

UPS 8 - UPS 8 - SDT 1 - SDT 1 - Subpainel 4 - Subpainel 4 - PowerStrip 9 - STS 0 =  ---- 0.9998465183580271
UPS 8 - UPS 8 - SDT 1 - SDT 1 - Subpainel 4 - Subpainel 4 - PowerStrip 2 - STS 0 =  ---- 0.9998448726332191
UPS 8 - UPS 8 - SDT 1 - SDT 1 - Subpainel 4 - Subpainel 4 - PowerStrip 9 - STS 9 =  ---- 1.0001033325358653
UPS 8 - UPS 8 - SDT 1 - SDT 1 - Subpainel 4 - Subpainel 4 - PowerStrip 2 - STS 9 =  ---- 0.9998316381950321

O melhor resultado foi UPS 8 - UPS 8 - SDT 1 - SDT 1 - Subpainel 4 - Subpainel 4 - PowerStrip 9 - STS 9 = 1.0001033325358653
CONSTRUÍDO COM SUCESSO (tempo total: 618 minutos 46 segundos)