UPS 9 - UPS 9 - SDT 6 - SDT 6 - Subpainel 8 - Subpainel 8 - PowerStrip 3 - PowerStrip 3 = 0.9996343911011432
UPS 9 - UPS 9 - SDT 3 - SDT 3 - Subpainel 8 - Subpainel 8 - PowerStrip 3 - PowerStrip 3 = 0.9996268315243186
UPS 1 - UPS 1 - SDT 6 - SDT 6 - Subpainel 8 - Subpainel 8 - PowerStrip 3 - PowerStrip 3 = 0.9996009442030844
UPS 1 - UPS 1 - SDT 3 - SDT 3 - Subpainel 8 - Subpainel 8 - PowerStrip 3 - PowerStrip 3 = 0.9995933875980731

UPS 9 - UPS 9 - SDT 6 - SDT 6 - Subpainel 6 - Subpainel 6 - PowerStrip 3 - PowerStrip 3 = 0.9996361370397153
UPS 9 - UPS 9 - SDT 3 - SDT 3 - Subpainel 6 - Subpainel 6 - PowerStrip 3 - PowerStrip 3 = 0.9996285774493665
UPS 1 - UPS 1 - SDT 6 - SDT 6 - Subpainel 6 - Subpainel 6 - PowerStrip 3 - PowerStrip 3 = 0.9996026904041684
UPS 1 - UPS 1 - SDT 3 - SDT 3 - Subpainel 6 - Subpainel 6 - PowerStrip 3 - PowerStrip 3 = 0.9995951300885556

UPS 9 - UPS 9 - SDT 6 - SDT 6 - Subpainel 8 - Subpainel 8 - PowerStrip 3 - PowerStrip 3 = 0.9996343911011432
UPS 9 - UPS 9 - SDT 3 - SDT 3 - Subpainel 8 - Subpainel 8 - PowerStrip 3 - PowerStrip 3 = 0.9996268315243186
UPS 1 - UPS 1 - SDT 6 - SDT 6 - Subpainel 8 - Subpainel 8 - PowerStrip 3 - PowerStrip 3 = 0.9996009442030844
UPS 1 - UPS 1 - SDT 3 - SDT 3 - Subpainel 8 - Subpainel 8 - PowerStrip 3 - PowerStrip 3 = 0.9995933875980731

UPS 9 - UPS 9 - SDT 6 - SDT 6 - Subpainel 9 - Subpainel 9 - PowerStrip 7 - PowerStrip 7 = 0.9996245977227622
UPS 9 - UPS 9 - SDT 3 - SDT 3 - Subpainel 9 - Subpainel 9 - PowerStrip 7 - PowerStrip 7 = 0.9996170375498362
UPS 1 - UPS 1 - SDT 6 - SDT 6 - Subpainel 9 - Subpainel 9 - PowerStrip 7 - PowerStrip 7 = 0.9995911499426676
UPS 1 - UPS 1 - SDT 3 - SDT 3 - Subpainel 9 - Subpainel 9 - PowerStrip 7 - PowerStrip 7 = 0.9995835895119053

UPS 9 - UPS 9 - SDT 6 - SDT 6 - Subpainel 4 - Subpainel 4 - PowerStrip 3 - PowerStrip 3 = 0.9995859024553322
UPS 9 - UPS 9 - SDT 3 - SDT 3 - Subpainel 4 - Subpainel 4 - PowerStrip 3 - PowerStrip 3 = 0.9995783422810457
UPS 1 - UPS 1 - SDT 6 - SDT 6 - Subpainel 4 - Subpainel 4 - PowerStrip 3 - PowerStrip 3 = 0.9995524538592032
UPS 1 - UPS 1 - SDT 3 - SDT 3 - Subpainel 4 - Subpainel 4 - PowerStrip 3 - PowerStrip 3 = 0.9995448962770018

tempo total: 9 minutos 50 segundos