UPS 6 - UPS 6 - SDT 3 - SDT 3 - Subpainel 3 - PowerStrip 9 - STS 7 = 0.9994852937700354 -- 
UPS 6 - UPS 6 - SDT 3 - SDT 3 - Subpainel 3 - PowerStrip 2 - STS 7 = 0.9994820369742353 -- 
UPS 6 - UPS 6 - SDT 3 - SDT 3 - Subpainel 1 - PowerStrip 9 - STS 7 = 0.9994814938932326 -- 
UPS 6 - UPS 6 - SDT 3 - SDT 3 - Subpainel 1 - PowerStrip 2 - STS 7 = 0.9994782363842842 -- 

UPS 9 - UPS 9 - SDT 3 - SDT 3 - Subpainel 3 - PowerStrip 9 - STS 4 = 0.9995662941646014 -- 
UPS 9 - UPS 9 - SDT 3 - SDT 3 - Subpainel 3 - PowerStrip 2 - STS 4 = 0.9995630375616978 -- 
UPS 9 - UPS 9 - SDT 3 - SDT 3 - Subpainel 1 - PowerStrip 9 - STS 4 = 0.9995624942832487 -- 
UPS 9 - UPS 9 - SDT 3 - SDT 3 - Subpainel 1 - PowerStrip 2 - STS 4 = 0.9995592361900926 -- 

UPS 0 - UPS 0 - SDT 9 - SDT 9 - Subpainel 3 - PowerStrip 9 - STS 3 = 0.9993317170490874 -- 
UPS 0 - UPS 0 - SDT 9 - SDT 9 - Subpainel 3 - PowerStrip 2 - STS 3 = 0.9993284601008404 -- 
UPS 0 - UPS 0 - SDT 9 - SDT 9 - Subpainel 1 - PowerStrip 9 - STS 3 = 0.9993279178921584 -- 
UPS 0 - UPS 0 - SDT 9 - SDT 9 - Subpainel 1 - PowerStrip 2 - STS 3 = 0.9993246607046663 -- 

UPS 2 - UPS 2 - SDT 8 - SDT 8 - Subpainel 3 - PowerStrip 9 - STS 3 = 0.9993316475545717 -- 
UPS 2 - UPS 2 - SDT 8 - SDT 8 - Subpainel 3 - PowerStrip 2 - STS 3 = 0.9993283906520309 -- 
UPS 2 - UPS 2 - SDT 8 - SDT 8 - Subpainel 1 - PowerStrip 9 - STS 3 = 0.9993278482737568 -- 
UPS 2 - UPS 2 - SDT 8 - SDT 8 - Subpainel 1 - PowerStrip 2 - STS 3 = 0.9993245908310308 -- 

UPS 3 - UPS 3 - SDT 2 - SDT 2 - Subpainel 3 - PowerStrip 9 - STS 1 = 0.9995898190643667 -- 
UPS 3 - UPS 3 - SDT 2 - SDT 2 - Subpainel 3 - PowerStrip 2 - STS 1 = 0.999586561476483 -- 
UPS 3 - UPS 3 - SDT 2 - SDT 2 - Subpainel 1 - PowerStrip 9 - STS 1 = 0.9995860190110043 -- 
UPS 3 - UPS 3 - SDT 2 - SDT 2 - Subpainel 1 - PowerStrip 2 - STS 1 = 0.999582760785724 -- 

tempo total: 7 minutos 42 segundos