UPS 0 - UPS 0 - SDT 5 - SDT 5 - Subpainel 6 - Subpainel 6 - PowerStrip 9 - STS 0 =  ---- 0.999846535246575
UPS 0 - UPS 0 - SDT 5 - SDT 5 - Subpainel 6 - Subpainel 6 - PowerStrip 2 - STS 0 =  ---- 0.9998448874218085
UPS 0 - UPS 0 - SDT 5 - SDT 5 - Subpainel 6 - Subpainel 6 - PowerStrip 9 - STS 9 =  ---- 0.9998333045692622
UPS 0 - UPS 0 - SDT 5 - SDT 5 - Subpainel 6 - Subpainel 6 - PowerStrip 2 - STS 9 =  ---- 0.9998316570265721

UPS 0 - UPS 0 - SDT 1 - SDT 1 - Subpainel 3 - Subpainel 3 - PowerStrip 9 - STS 0 =  ---- 0.9998465467909023
UPS 0 - UPS 0 - SDT 1 - SDT 1 - Subpainel 3 - Subpainel 3 - PowerStrip 2 - STS 0 =  ---- 0.9998448968254919
UPS 0 - UPS 0 - SDT 1 - SDT 1 - Subpainel 3 - Subpainel 3 - PowerStrip 9 - STS 9 =  ---- 0.9998333152563897
UPS 0 - UPS 0 - SDT 1 - SDT 1 - Subpainel 3 - Subpainel 3 - PowerStrip 2 - STS 9 =  ---- 0.9998316674055355

UPS 0 - UPS 0 - SDT 4 - SDT 4 - Subpainel 9 - Subpainel 9 - PowerStrip 9 - STS 0 =  ---- 0.9998465120419574
UPS 0 - UPS 0 - SDT 4 - SDT 4 - Subpainel 9 - Subpainel 9 - PowerStrip 2 - STS 0 =  ---- 0.9998448651710552
UPS 0 - UPS 0 - SDT 4 - SDT 4 - Subpainel 9 - Subpainel 9 - PowerStrip 9 - STS 9 =  ---- 0.9998332827920234
UPS 0 - UPS 0 - SDT 4 - SDT 4 - Subpainel 9 - Subpainel 9 - PowerStrip 2 - STS 9 =  ---- 0.9998316348242551

UPS 9 - UPS 9 - SDT 1 - SDT 1 - Subpainel 3 - Subpainel 3 - PowerStrip 9 - STS 0 =  ---- 0.9998448178662815
UPS 9 - UPS 9 - SDT 1 - SDT 1 - Subpainel 3 - Subpainel 3 - PowerStrip 2 - STS 0 =  ---- 0.9998449569612641
UPS 9 - UPS 9 - SDT 1 - SDT 1 - Subpainel 3 - Subpainel 3 - PowerStrip 9 - STS 9 =  ---- 0.999833373318059
UPS 9 - UPS 9 - SDT 1 - SDT 1 - Subpainel 3 - Subpainel 3 - PowerStrip 2 - STS 9 =  ---- 0.9998317287322638

UPS 4 - UPS 4 - SDT 8 - SDT 8 - Subpainel 3 - Subpainel 3 - PowerStrip 9 - STS 0 =  ---- 0.9998465231320364
UPS 4 - UPS 4 - SDT 8 - SDT 8 - Subpainel 3 - Subpainel 3 - PowerStrip 2 - STS 0 =  ---- 0.9998448767048572
UPS 4 - UPS 4 - SDT 8 - SDT 8 - Subpainel 3 - Subpainel 3 - PowerStrip 9 - STS 9 =  ---- 0.99983329433054
UPS 4 - UPS 4 - SDT 8 - SDT 8 - Subpainel 3 - Subpainel 3 - PowerStrip 2 - STS 9 =  ---- 0.9998316470639702

611 minutos 24 segundos