UPS 9 - UPS 9 - SDT 6 - SDT 6 - Subpainel 0 - Subpainel 0 - PowerStrip 7 - PowerStrip 7 = 0.9999804466024589 --- 0.9999901650149169
UPS 9 - UPS 9 - SDT 3 - SDT 3 - Subpainel 0 - Subpainel 0 - PowerStrip 7 - PowerStrip 7 = 0.9999797627473956 --- 0.9999898206118014
UPS 1 - UPS 1 - SDT 6 - SDT 6 - Subpainel 0 - Subpainel 0 - PowerStrip 7 - PowerStrip 7 = 0.9999771824476361 --- 0.9999885357611957
UPS 1 - UPS 1 - SDT 3 - SDT 3 - Subpainel 0 - Subpainel 0 - PowerStrip 7 - PowerStrip 7 = 0.9999763875509577 --- 0.9999881367231203

UPS 9 - UPS 9 - SDT 6 - SDT 6 - Subpainel 6 - Subpainel 6 - PowerStrip 2 - PowerStrip 2 = 0.999984883102812 --- 0.9999923838235187
UPS 9 - UPS 9 - SDT 3 - SDT 3 - Subpainel 6 - Subpainel 6 - PowerStrip 2 - PowerStrip 2 = 0.9999842270310794 --- 0.9999920595743595
UPS 1 - UPS 1 - SDT 6 - SDT 6 - Subpainel 6 - Subpainel 6 - PowerStrip 2 - PowerStrip 2 = 0.9999819288281389 --- 0.9999909188921542
UPS 1 - UPS 1 - SDT 3 - SDT 3 - Subpainel 6 - Subpainel 6 - PowerStrip 2 - PowerStrip 2 = 0.9999812504909877 --- 0.9999905744197752

UPS 9 - UPS 9 - SDT 6 - SDT 6 - Subpainel 5 - Subpainel 5 - PowerStrip 7 - PowerStrip 7 = 0.9999781879724037 --- 0.9999890904295431
UPS 9 - UPS 9 - SDT 3 - SDT 3 - Subpainel 5 - Subpainel 5 - PowerStrip 7 - PowerStrip 7 = 0.999977401426774 --- 0.9999886394641099
UPS 1 - UPS 1 - SDT 6 - SDT 6 - Subpainel 5 - Subpainel 5 - PowerStrip 7 - PowerStrip 7 = 0.9999746937992867 --- 0.9999872903616167
UPS 1 - UPS 1 - SDT 3 - SDT 3 - Subpainel 5 - Subpainel 5 - PowerStrip 7 - PowerStrip 7 = 0.999973845117164 --- 0.9999868637536681

UPS 9 - UPS 9 - SDT 6 - SDT 6 - Subpainel 3 - Subpainel 3 - PowerStrip 1 - PowerStrip 1 = 0.9999852194070052 --- 0.9999925643403625
UPS 9 - UPS 9 - SDT 3 - SDT 3 - Subpainel 3 - Subpainel 3 - PowerStrip 1 - PowerStrip 1 = 0.9999846105711796 --- 0.9999922569640831
UPS 1 - UPS 1 - SDT 6 - SDT 6 - Subpainel 3 - Subpainel 3 - PowerStrip 1 - PowerStrip 1 = 0.9999823729924681 --- 0.9999911384958342
UPS 1 - UPS 1 - SDT 3 - SDT 3 - Subpainel 3 - Subpainel 3 - PowerStrip 1 - PowerStrip 1 = 0.9999816595329952 --- 0.9999907893419514

UPS 9 - UPS 9 - SDT 6 - SDT 6 - Subpainel 1 - Subpainel 1 - PowerStrip 3 - PowerStrip 3 = 0.9999844457101711 --- 0.9999922726386246
UPS 9 - UPS 9 - SDT 3 - SDT 3 - Subpainel 1 - Subpainel 1 - PowerStrip 3 - PowerStrip 3 = 0.99998398778209 --- 0.9999919353602246
UPS 1 - UPS 1 - SDT 6 - SDT 6 - Subpainel 1 - Subpainel 1 - PowerStrip 3 - PowerStrip 3 = 0.9999816994204362 --- 0.9999907971475354
UPS 1 - UPS 1 - SDT 3 - SDT 3 - Subpainel 1 - Subpainel 1 - PowerStrip 3 - PowerStrip 3 = 0.9999809842427557 --- 0.99999044125319

801 minutos 9 segundos