UPS 9 - UPS 9 - SDT 6 - SDT 6 - Subpainel 7 - Subpainel 7 - PowerStrip 1 - PowerStrip 1 = 0.9989016791120962 --  0.9989030633582965
UPS 9 - UPS 9 - SDT 3 - SDT 3 - Subpainel 7 - Subpainel 7 - PowerStrip 1 - PowerStrip 1 = 0.9988789732258733 --  0.9988804264219947
UPS 1 - UPS 1 - SDT 6 - SDT 6 - Subpainel 7 - Subpainel 7 - PowerStrip 1 - PowerStrip 1 = 0.9988012877592137 --  0.9988029313828177
UPS 1 - UPS 1 - SDT 3 - SDT 3 - Subpainel 7 - Subpainel 7 - PowerStrip 1 - PowerStrip 1 = 0.9987785807297664 --  0.9987802884222918

UPS 9 - UPS 9 - SDT 6 - SDT 6 - Subpainel 0 - Subpainel 0 - PowerStrip 3 - PowerStrip 3 = 0.9988064122844005 --  0.9988079897559036
UPS 9 - UPS 9 - SDT 3 - SDT 3 - Subpainel 0 - Subpainel 0 - PowerStrip 3 - PowerStrip 3 = 0.9987837052985612 --  0.9987853556344239
UPS 1 - UPS 1 - SDT 6 - SDT 6 - Subpainel 0 - Subpainel 0 - PowerStrip 3 - PowerStrip 3 = 0.9987060143250264 --  0.9987078693124154
UPS 1 - UPS 1 - SDT 3 - SDT 3 - Subpainel 0 - Subpainel 0 - PowerStrip 3 - PowerStrip 3 = 0.9986833013662255 --  0.9986852436985235

UPS 9 - UPS 9 - SDT 6 - SDT 6 - Subpainel 3 - Subpainel 3 - PowerStrip 8 - PowerStrip 8 = 0.9988934875079312 --  0.9988949346193303
UPS 9 - UPS 9 - SDT 3 - SDT 3 - Subpainel 3 - Subpainel 3 - PowerStrip 8 - PowerStrip 8 = 0.9988707801378998 --  0.9988722976825927
UPS 1 - UPS 1 - SDT 6 - SDT 6 - Subpainel 3 - Subpainel 3 - PowerStrip 8 - PowerStrip 8 = 0.998793094629375 --  0.9987948127068251
UPS 1 - UPS 1 - SDT 3 - SDT 3 - Subpainel 3 - Subpainel 3 - PowerStrip 8 - PowerStrip 8 = 0.9987703825920994 --  0.9987721705924989

UPS 9 - UPS 9 - SDT 6 - SDT 6 - Subpainel 4 - Subpainel 4 - PowerStrip 8 - PowerStrip 8 = 0.9987233918769177 --  0.9987251695050351
UPS 9 - UPS 9 - SDT 3 - SDT 3 - Subpainel 4 - Subpainel 4 - PowerStrip 8 - PowerStrip 8 = 0.9987006801151329 --  0.99870253946397
UPS 1 - UPS 1 - SDT 6 - SDT 6 - Subpainel 4 - Subpainel 4 - PowerStrip 8 - PowerStrip 8 = 0.9986229801459343 --  0.9986250595257049
UPS 1 - UPS 1 - SDT 3 - SDT 3 - Subpainel 4 - Subpainel 4 - PowerStrip 8 - PowerStrip 8 = 0.9986002736339769 --  0.9986024290044547

UPS 9 - UPS 9 - SDT 6 - SDT 6 - Subpainel 2 - Subpainel 2 - PowerStrip 0 - PowerStrip 0 = 0.9987859207356982 --  0.9987875544259451
UPS 9 - UPS 9 - SDT 3 - SDT 3 - Subpainel 2 - Subpainel 2 - PowerStrip 0 - PowerStrip 0 = 0.9987632118374303 --  0.9987649203133988
UPS 1 - UPS 1 - SDT 6 - SDT 6 - Subpainel 2 - Subpainel 2 - PowerStrip 0 - PowerStrip 0 = 0.9986855187958958 --  0.9986874351778532
UPS 1 - UPS 1 - SDT 3 - SDT 3 - Subpainel 2 - Subpainel 2 - PowerStrip 0 - PowerStrip 0 = 0.998662804511334 --  0.998664802831548

