UPS 9 - UPS 9 - SDT 6 - SDT 6 - Subpainel 2 - Subpainel 2 - PowerStrip 2 - PowerStrip 2 = 0.9996057338641651
UPS 9 - UPS 9 - SDT 3 - SDT 3 - Subpainel 2 - Subpainel 2 - PowerStrip 2 - PowerStrip 2 = 0.9995981822720177
UPS 1 - UPS 1 - SDT 6 - SDT 6 - Subpainel 2 - Subpainel 2 - PowerStrip 2 - PowerStrip 2 = 0.9995723167616
UPS 1 - UPS 1 - SDT 3 - SDT 3 - Subpainel 2 - Subpainel 2 - PowerStrip 2 - PowerStrip 2 = 0.9995647654868233

UPS 9 - UPS 9 - SDT 6 - SDT 6 - Subpainel 4 - Subpainel 4 - PowerStrip 0 - PowerStrip 0 = 0.9995814024318392
UPS 9 - UPS 9 - SDT 3 - SDT 3 - Subpainel 4 - Subpainel 4 - PowerStrip 0 - PowerStrip 0 = 0.9995738511961062
UPS 1 - UPS 1 - SDT 6 - SDT 6 - Subpainel 4 - Subpainel 4 - PowerStrip 0 - PowerStrip 0 = 0.9995479863088169
UPS 1 - UPS 1 - SDT 3 - SDT 3 - Subpainel 4 - Subpainel 4 - PowerStrip 0 - PowerStrip 0 = 0.9995404349574484

UPS 9 - UPS 9 - SDT 6 - SDT 6 - Subpainel 3 - Subpainel 3 - PowerStrip 8 - PowerStrip 8 = 0.9996314531563265
UPS 9 - UPS 9 - SDT 3 - SDT 3 - Subpainel 3 - Subpainel 3 - PowerStrip 8 - PowerStrip 8 = 0.9996239011716641
UPS 1 - UPS 1 - SDT 6 - SDT 6 - Subpainel 3 - Subpainel 3 - PowerStrip 8 - PowerStrip 8 = 0.9995980351565171
UPS 1 - UPS 1 - SDT 3 - SDT 3 - Subpainel 3 - Subpainel 3 - PowerStrip 8 - PowerStrip 8 = 0.9995904834591989

UPS 9 - UPS 9 - SDT 6 - SDT 6 - Subpainel 2 - Subpainel 2 - PowerStrip 1 - PowerStrip 1 = 0.9996039987810343
UPS 9 - UPS 9 - SDT 3 - SDT 3 - Subpainel 2 - Subpainel 2 - PowerStrip 1 - PowerStrip 1 = 0.9995964471084748
UPS 1 - UPS 1 - SDT 6 - SDT 6 - Subpainel 2 - Subpainel 2 - PowerStrip 1 - PowerStrip 1 = 0.9995705818898861
UPS 1 - UPS 1 - SDT 3 - SDT 3 - Subpainel 2 - Subpainel 2 - PowerStrip 1 - PowerStrip 1 = 0.9995630301471711

UPS 9 - UPS 9 - SDT 6 - SDT 6 - Subpainel 0 - Subpainel 0 - PowerStrip 5 - PowerStrip 5 = 0.9995820123131336
UPS 9 - UPS 9 - SDT 3 - SDT 3 - Subpainel 0 - Subpainel 0 - PowerStrip 5 - PowerStrip 5 = 0.9995744611501673
UPS 1 - UPS 1 - SDT 6 - SDT 6 - Subpainel 0 - Subpainel 0 - PowerStrip 5 - PowerStrip 5 = 0.9995485959424341
UPS 1 - UPS 1 - SDT 3 - SDT 3 - Subpainel 0 - Subpainel 0 - PowerStrip 5 - PowerStrip 5 = 0.9995410447678498

