UPS 8 = 0.9998521803506545
UPS 3 = 0.9997750913691313
UPS 7 = 0.9998342243773053
UPS 3 = 0.9997750913691313
UPS 7 = 0.9998342243773053
UPS 5 = 0.9998078724272917
UPS 1 = 0.9998737014856911
UPS 8 = 0.9998521803506545
UPS 7 = 0.9998342243773053
UPS 7 = 0.9998342243773053
