SDT 5 = 0.999967950579794
SDT 9 = 0.9999659399842565
SDT 8 = 0.9999649198943733
SDT 2 = 0.9999695048153803
SDT 7 = 0.999975850478236
SDT 6 = 0.9999808261761044
SDT 5 = 0.999967950579794
SDT 1 = 0.9999720139300663
SDT 8 = 0.9999649198943733
SDT 8 = 0.9999649198943733
