SubPainel 1 = 0.9999780508014201
SubPainel 8 = 0.9999758588952427
SubPainel 4 = 0.9999516204137664
SubPainel 7 = 0.9999738249016797
SubPainel 1 = 0.9999780508014201
SubPainel 0 = 0.9999598026309178
SubPainel 3 = 0.9999799517337992
SubPainel 1 = 0.9999780508014201
SubPainel 2 = 0.9999587358734842
SubPainel 2 = 0.9999587358734842
