UPS 8 - UPS 8 - SDT 5 - SDT 5 - Subpainel 1 - Subpainel 1 - PowerStrip 9 - STS 0 = 0.9996965206945302 - 
UPS 8 - UPS 8 - SDT 5 - SDT 5 - Subpainel 1 - Subpainel 1 - PowerStrip 2 - STS 0 = 0.9996932848479823 - 
UPS 8 - UPS 8 - SDT 5 - SDT 5 - Subpainel 1 - Subpainel 1 - PowerStrip 9 - STS 9 = 0.9996703763484004 - 
UPS 8 - UPS 8 - SDT 5 - SDT 5 - Subpainel 1 - Subpainel 1 - PowerStrip 2 - STS 9 = 0.9996671157641658 - 

UPS 3 - UPS 3 - SDT 9 - SDT 9 - Subpainel 8 - Subpainel 8 - PowerStrip 9 - STS 0 = 0.9996961328536477 - 
UPS 3 - UPS 3 - SDT 9 - SDT 9 - Subpainel 8 - Subpainel 8 - PowerStrip 2 - STS 0 = 0.9996928697086966 - 
UPS 3 - UPS 3 - SDT 9 - SDT 9 - Subpainel 8 - Subpainel 8 - PowerStrip 9 - STS 9 = 0.999669954998697 - 
UPS 3 - UPS 3 - SDT 9 - SDT 9 - Subpainel 8 - Subpainel 8 - PowerStrip 2 - STS 9 = 0.9996666922538763 - 

UPS 7 - UPS 7 - SDT 8 - SDT 8 - Subpainel 4 - Subpainel 4 - PowerStrip 9 - STS 0 = 0.9996963655553346 - 
UPS 7 - UPS 7 - SDT 8 - SDT 8 - Subpainel 4 - Subpainel 4 - PowerStrip 2 - STS 0 = 0.9996930565548731 - 
UPS 7 - UPS 7 - SDT 8 - SDT 8 - Subpainel 4 - Subpainel 4 - PowerStrip 9 - STS 9 = 0.9996701432435011 - 
UPS 7 - UPS 7 - SDT 8 - SDT 8 - Subpainel 4 - Subpainel 4 - PowerStrip 2 - STS 9 = 0.9996668809139256 - 

UPS 3 - UPS 3 - SDT 2 - SDT 2 - Subpainel 7 - Subpainel 7 - PowerStrip 9 - STS 0 = 0.9996961417897501 - 
UPS 3 - UPS 3 - SDT 2 - SDT 2 - Subpainel 7 - Subpainel 7 - PowerStrip 2 - STS 0 = 0.9996928792214791 - 
UPS 3 - UPS 3 - SDT 2 - SDT 2 - Subpainel 7 - Subpainel 7 - PowerStrip 9 - STS 9 = 0.9996699640358742 - 
UPS 3 - UPS 3 - SDT 2 - SDT 2 - Subpainel 7 - Subpainel 7 - PowerStrip 2 - STS 9 = 0.9996667008276001 - 

UPS 7 - UPS 7 - SDT 7 - SDT 7 - Subpainel 1 - Subpainel 1 - PowerStrip 9 - STS 0 = 0.9996965016018373 - 
UPS 7 - UPS 7 - SDT 7 - SDT 7 - Subpainel 1 - Subpainel 1 - PowerStrip 2 - STS 0 = 0.9996932392474805 - 
UPS 7 - UPS 7 - SDT 7 - SDT 7 - Subpainel 1 - Subpainel 1 - PowerStrip 9 - STS 9 = 0.999670330877617 - 
UPS 7 - UPS 7 - SDT 7 - SDT 7 - Subpainel 1 - Subpainel 1 - PowerStrip 2 - STS 9 = 0.9996670665390794 - 

UPS 5 - UPS 5 - SDT 6 - SDT 6 - Subpainel 0 - Subpainel 0 - PowerStrip 9 - STS 0 = 0.9996968768100974 - 
UPS 5 - UPS 5 - SDT 6 - SDT 6 - Subpainel 0 - Subpainel 0 - PowerStrip 2 - STS 0 = 0.9996936190040241 - 
UPS 5 - UPS 5 - SDT 6 - SDT 6 - Subpainel 0 - Subpainel 0 - PowerStrip 9 - STS 9 = 0.9996707296606455 - 
UPS 5 - UPS 5 - SDT 6 - SDT 6 - Subpainel 0 - Subpainel 0 - PowerStrip 2 - STS 9 = 0.9996674717614336 - 

UPS 1 - UPS 1 - SDT 5 - SDT 5 - Subpainel 3 - Subpainel 3 - PowerStrip 9 - STS 0 = 0.9996970026826705 - 
UPS 1 - UPS 1 - SDT 5 - SDT 5 - Subpainel 3 - Subpainel 3 - PowerStrip 2 - STS 0 = 0.9996937444252318 - 
UPS 1 - UPS 1 - SDT 5 - SDT 5 - Subpainel 3 - Subpainel 3 - PowerStrip 9 - STS 9 = 0.9996708556377744 - 
UPS 1 - UPS 1 - SDT 5 - SDT 5 - Subpainel 3 - Subpainel 3 - PowerStrip 2 - STS 9 = 0.9996675975178763 - 

UPS 8 - UPS 8 - SDT 1 - SDT 1 - Subpainel 1 - Subpainel 1 - PowerStrip 9 - STS 0 = 0.9996969736971285 - 
UPS 8 - UPS 8 - SDT 1 - SDT 1 - Subpainel 1 - Subpainel 1 - PowerStrip 2 - STS 0 = 0.9996937151317806 - 
UPS 8 - UPS 8 - SDT 1 - SDT 1 - Subpainel 1 - Subpainel 1 - PowerStrip 9 - STS 9 = 0.9996708258456899 - 
UPS 8 - UPS 8 - SDT 1 - SDT 1 - Subpainel 1 - Subpainel 1 - PowerStrip 2 - STS 9 = 0.9996675682783869 - 

UPS 7 - UPS 7 - SDT 8 - SDT 8 - Subpainel 2 - Subpainel 2 - PowerStrip 9 - STS 0 = 0.9996968951188236 - 
UPS 7 - UPS 7 - SDT 8 - SDT 8 - Subpainel 2 - Subpainel 2 - PowerStrip 2 - STS 0 = 0.9996936377019023 - 
UPS 7 - UPS 7 - SDT 8 - SDT 8 - Subpainel 2 - Subpainel 2 - PowerStrip 9 - STS 9 = 0.9996707482119055 - 
UPS 7 - UPS 7 - SDT 8 - SDT 8 - Subpainel 2 - Subpainel 2 - PowerStrip 2 - STS 9 = 0.999667490214646 - 

UPS 7 - UPS 7 - SDT 8 - SDT 8 - Subpainel 2 - Subpainel 2 - PowerStrip 9 - STS 0 = 0.9996968951188236 - 
UPS 7 - UPS 7 - SDT 8 - SDT 8 - Subpainel 2 - Subpainel 2 - PowerStrip 2 - STS 0 = 0.9996936377019023 - 
UPS 7 - UPS 7 - SDT 8 - SDT 8 - Subpainel 2 - Subpainel 2 - PowerStrip 9 - STS 9 = 0.9996707482119055 - 
UPS 7 - UPS 7 - SDT 8 - SDT 8 - Subpainel 2 - Subpainel 2 - PowerStrip 2 - STS 9 = 0.999667490214646 - 

