Powerstrip 4 = 0.999970495899391
Powerstrip 1 = 0.9999719812169083
Powerstrip 1 = 0.9999719812169083
Powerstrip 2 = 0.9999728491200145
Powerstrip 1 = 0.9999719812169083
Powerstrip 8 = 0.9999644977372855
