UPS 9; SDT 6; Subpainel 3; PowerStrip 9; 0.9998256820788103
UPS 9; SDT 3; Subpainel 3; PowerStrip 9; 0.9998219053192186
UPS 1; SDT 6; Subpainel 3; PowerStrip 9; 0.999808967674332
UPS 1; SDT 3; Subpainel 3; PowerStrip 9; 0.9998051909886501

UPS 9; SDT 6; Subpainel 1; PowerStrip 9; 0.9998237813961547
UPS 9; SDT 3; Subpainel 1; PowerStrip 9; 0.9998200046988175
UPS 1; SDT 6; Subpainel 1; PowerStrip 9; 0.9998070670844885
UPS 1; SDT 3; Subpainel 1; PowerStrip 9; 0.9998032903886459

UPS 9; SDT 6; Subpainel 4; PowerStrip 0; 0.9997906715495537
UPS 9; SDT 3; Subpainel 4; PowerStrip 0; 0.9997868949775913
UPS 1; SDT 6; Subpainel 4; PowerStrip 0; 0.9997739577733133
UPS 1; SDT 3; Subpainel 4; PowerStrip 0; 0.9997701812496539

UPS 9; SDT 6; Subpainel 2; PowerStrip 0; 0.9997977858900182
UPS 9; SDT 3; Subpainel 2; PowerStrip 0; 0.9997940092740545
UPS 1; SDT 6; Subpainel 2; PowerStrip 0; 0.9997810719718675
UPS 1; SDT 3; Subpainel 2; PowerStrip 0; 0.9997772953844885

UPS 9; SDT 6; Subpainel 1; PowerStrip 0; 0.999817097722388
UPS 9; SDT 3; Subpainel 1; PowerStrip 0; 0.9998133209989795
UPS 1; SDT 6; Subpainel 1; PowerStrip 0; 0.9998003834560384
UPS 1; SDT 3; Subpainel 1; PowerStrip 0; 0.9997966068316948

