UPS 9 - SDT 6 - Subpainel 4 - PowerStrip 0 = 0.9995813464828823 -- 0.9995814026397682
UPS 9 - SDT 3 - Subpainel 4 - PowerStrip 0 = 0.9995737923333717 -- 0.9995738512970548
UPS 1 - SDT 6 - Subpainel 4 - PowerStrip 0 = 0.9995479235634367 -- 0.9995479863272452
UPS 1 - SDT 3 - Subpainel 4 - PowerStrip 0 = 0.9995403693052988 -- 0.9995404351793882

UPS 9 - SDT 6 - Subpainel 5 - PowerStrip 0 = 0.9995743308739234 -- 0.999574389293696
UPS 9 - SDT 3 - Subpainel 5 - PowerStrip 0 = 0.9995667765877285 -- 0.9995668379066269
UPS 1 - SDT 6 - Subpainel 5 - PowerStrip 0 = 0.9995409079369422 -- 0.9995409732017994
UPS 1 - SDT 3 - Subpainel 5 - PowerStrip 0 = 0.9995333537013796 -- 0.9995334221159954

UPS 9 - SDT 6 - Subpainel 6 - PowerStrip 0 = 0.9996315652582615 -- 0.9996316052023121
UPS 9 - SDT 3 - Subpainel 6 - PowerStrip 0 = 0.9996240108521519 -- 0.999624053324053
UPS 1 - SDT 6 - Subpainel 6 - PowerStrip 0 = 0.9995981422445848 -- 0.9995981871602188
UPS 1 - SDT 3 - Subpainel 6 - PowerStrip 0 = 0.9995905879277476 -- 0.9995906355940054

UPS 9 - SDT 6 - Subpainel 3 - PowerStrip 4 = 0.9996434087833115 -- 0.9996434450837964
UPS 9 - SDT 3 - Subpainel 3 - PowerStrip 4 = 0.999635854569777 -- 0.9996358932333876
UPS 1 - SDT 6 - Subpainel 3 - PowerStrip 4 = 0.9996099858247887 -- 0.9996100266827666
UPS 1 - SDT 3 - Subpainel 3 - PowerStrip 4 = 0.9996024314736451 -- 0.9996024749853157

UPS 9 - SDT 6 - Subpainel 6 - PowerStrip 5 = 0.9996158119582349 -- 0.9996158567095206
UPS 9 - SDT 3 - Subpainel 6 - PowerStrip 5 = 0.9996082575968996 -- 0.9996083049744425
UPS 1 - SDT 6 - Subpainel 6 - PowerStrip 5 = 0.9995823889291288 -- 0.9995824391827018
UPS 1 - SDT 3 - Subpainel 6 - PowerStrip 5 = 0.9995748345842541 -- 0.9995748877095522

O melhor resultado foi UPS 9 - SDT 6 - Subpainel 3 - PowerStrip 4 = 0.9996434087833115

CONSTRUÍDO COM SUCESSO (tempo total: 11 segundos)