UPS 5 - UPS 5 - SDT 6 - Subpainel 3 - PowerStrip 0 - STS 9 = 0.9995785388294839
UPS 5 - UPS 5 - SDT 6 - Subpainel 1 - PowerStrip 0 - STS 9 = 0.9995747336618337
UPS 5 - UPS 5 - SDT 3 - Subpainel 3 - PowerStrip 0 - STS 9 = 0.9995709784441704
UPS 5 - UPS 5 - SDT 3 - Subpainel 1 - PowerStrip 0 - STS 9 = 0.9995671740957357

UPS 7 - UPS 7 - SDT 6 - Subpainel 3 - PowerStrip 5 - STS 7 = 0.9994174635742002
UPS 7 - UPS 7 - SDT 6 - Subpainel 1 - PowerStrip 5 - STS 7 = 0.9994136593780103
UPS 7 - UPS 7 - SDT 3 - Subpainel 3 - PowerStrip 5 - STS 7 = 0.9994099042368464
UPS 7 - UPS 7 - SDT 3 - Subpainel 1 - PowerStrip 5 - STS 7 = 0.9994061000709316

UPS 2 - UPS 2 - SDT 6 - Subpainel 3 - PowerStrip 0 - STS 2 = 0.9992962170143059
UPS 2 - UPS 2 - SDT 6 - Subpainel 1 - PowerStrip 0 - STS 2 = 0.9992924125858254
UPS 2 - UPS 2 - SDT 3 - Subpainel 3 - PowerStrip 0 - STS 2 = 0.9992886568473833
UPS 2 - UPS 2 - SDT 3 - Subpainel 1 - PowerStrip 0 - STS 2 = 0.9992848517678427

UPS 1 - UPS 1 - SDT 6 - Subpainel 3 - PowerStrip 1 - STS 0 = 0.9996133571189917
UPS 1 - UPS 1 - SDT 6 - Subpainel 1 - PowerStrip 1 - STS 0 = 0.9996095532640347
UPS 1 - UPS 1 - SDT 3 - Subpainel 3 - PowerStrip 1 - STS 0 = 0.9996057991062913
UPS 1 - UPS 1 - SDT 3 - Subpainel 1 - PowerStrip 1 - STS 0 = 0.9996019953356476

UPS 5 - UPS 5 - SDT 6 - Subpainel 3 - PowerStrip 0 - STS 2 = 0.9992962451726579
UPS 5 - UPS 5 - SDT 6 - Subpainel 1 - PowerStrip 0 - STS 2 = 0.9992924402442708
UPS 5 - UPS 5 - SDT 3 - Subpainel 3 - PowerStrip 0 - STS 2 = 0.9992886844733075
UPS 5 - UPS 5 - SDT 3 - Subpainel 1 - PowerStrip 0 - STS 2 = 0.9992848798810916

