UPS 1 - UPS 1 - SDT 8 - SDT 8 - Subpainel 4 - Subpainel 4 - PowerStrip 9 - STS 0 = 0.9998461245168518 ---- 0.9998465384309867
UPS 1 - UPS 1 - SDT 8 - SDT 8 - Subpainel 4 - Subpainel 4 - PowerStrip 2 - STS 0 = 0.9998444722956085 ---- 0.9998448906610533
UPS 1 - UPS 1 - SDT 8 - SDT 8 - Subpainel 4 - Subpainel 4 - PowerStrip 9 - STS 9 = 0.9998328651808505 ---- 0.9998333049695728
UPS 1 - UPS 1 - SDT 8 - SDT 8 - Subpainel 4 - Subpainel 4 - PowerStrip 2 - STS 9 = 0.9998312140580236 ---- 0.9998316598965199

UPS 8 - UPS 8 - SDT 9 - SDT 9 - Subpainel 3 - Subpainel 3 - PowerStrip 9 - STS 0 = 0.9998461469963839 ---- 0.9998465514071819
UPS 8 - UPS 8 - SDT 9 - SDT 9 - Subpainel 3 - Subpainel 3 - PowerStrip 2 - STS 0 = 0.9998444892485464 ---- 0.999844899765789
UPS 8 - UPS 8 - SDT 9 - SDT 9 - Subpainel 3 - Subpainel 3 - PowerStrip 9 - STS 9 = 0.9998328879106567 ---- 0.9998333194412233
UPS 8 - UPS 8 - SDT 9 - SDT 9 - Subpainel 3 - Subpainel 3 - PowerStrip 2 - STS 9 = 0.9998312372831342 ---- 0.999831670587196

UPS 7 - UPS 7 - SDT 0 - SDT 0 - Subpainel 8 - Subpainel 8 - PowerStrip 9 - STS 0 = 0.9998460532825375 ---- 0.9998465019512156
UPS 7 - UPS 7 - SDT 0 - SDT 0 - Subpainel 8 - Subpainel 8 - PowerStrip 2 - STS 0 = 0.9998444003445334 ---- 0.9998448517328572
UPS 7 - UPS 7 - SDT 0 - SDT 0 - Subpainel 8 - Subpainel 8 - PowerStrip 9 - STS 9 = 0.9998327997398242 ---- 0.9998332713071993
UPS 7 - UPS 7 - SDT 0 - SDT 0 - Subpainel 8 - Subpainel 8 - PowerStrip 2 - STS 9 = 0.9998311418407309 ---- 0.9998316202154309

UPS 4 - UPS 4 - SDT 7 - SDT 7 - Subpainel 5 - Subpainel 5 - PowerStrip 9 - STS 0 = 0.9998460410778834 ---- 0.9998464950905557
UPS 4 - UPS 4 - SDT 7 - SDT 7 - Subpainel 5 - Subpainel 5 - PowerStrip 2 - STS 0 = 0.9998443848465575 ---- 0.9998448452286635
UPS 4 - UPS 4 - SDT 7 - SDT 7 - Subpainel 5 - Subpainel 5 - PowerStrip 9 - STS 9 = 0.999832787610876 ---- 0.9998332658749651
UPS 4 - UPS 4 - SDT 7 - SDT 7 - Subpainel 5 - Subpainel 5 - PowerStrip 2 - STS 9 = 0.9998311330563405 ---- 0.9998316178928935

UPS 7 - UPS 7 - SDT 7 - SDT 7 - Subpainel 6 - Subpainel 6 - PowerStrip 9 - STS 0 = 0.9998461118919407 ---- 0.9998465334336871
UPS 7 - UPS 7 - SDT 7 - SDT 7 - Subpainel 6 - Subpainel 6 - PowerStrip 2 - STS 0 = 0.9998444625536044 ---- 0.9998448861180951
UPS 7 - UPS 7 - SDT 7 - SDT 7 - Subpainel 6 - Subpainel 6 - PowerStrip 9 - STS 9 = 0.9998328580014463 ---- 0.999833301976902
UPS 7 - UPS 7 - SDT 7 - SDT 7 - Subpainel 6 - Subpainel 6 - PowerStrip 2 - STS 9 = 0.9998312070299861 ---- 0.9998316550992689

O melhor resultado foi UPS 8 - UPS 8 - SDT 9 - SDT 9 - Subpainel 3 - Subpainel 3 - PowerStrip 9 - STS 0 = 0.9998461469963839

CONSTRUÍDO COM SUCESSO (tempo total: 634 minutos 17 segundos)