UPS 9 - UPS 9 - SDT 6 - SDT 6 - Subpainel 0 - Subpainel 0 - PowerStrip 2 - PowerStrip 2 = 0.9999993434299108
UPS 9 - UPS 9 - SDT 3 - SDT 3 - Subpainel 0 - Subpainel 0 - PowerStrip 2 - PowerStrip 2 = 0.9999993243918242
UPS 1 - UPS 1 - SDT 6 - SDT 6 - Subpainel 0 - Subpainel 0 - PowerStrip 2 - PowerStrip 2 = 0.9999992504648851
UPS 1 - UPS 1 - SDT 3 - SDT 3 - Subpainel 0 - Subpainel 0 - PowerStrip 2 - PowerStrip 2 = 0.9999992249313732

UPS 9 - UPS 9 - SDT 6 - SDT 6 - Subpainel 7 - Subpainel 7 - PowerStrip 7 - PowerStrip 7 = 0.9999993637592246
UPS 9 - UPS 9 - SDT 3 - SDT 3 - Subpainel 7 - Subpainel 7 - PowerStrip 7 - PowerStrip 7 = 0.999999357011337
UPS 1 - UPS 1 - SDT 6 - SDT 6 - Subpainel 7 - Subpainel 7 - PowerStrip 7 - PowerStrip 7 = 0.9999992820977441
UPS 1 - UPS 1 - SDT 3 - SDT 3 - Subpainel 7 - Subpainel 7 - PowerStrip 7 - PowerStrip 7 = 0.9999992665664448

UPS 9 - UPS 9 - SDT 6 - SDT 6 - Subpainel 3 - Subpainel 3 - PowerStrip 3 - PowerStrip 3 = 0.999999421575419
UPS 9 - UPS 9 - SDT 3 - SDT 3 - Subpainel 3 - Subpainel 3 - PowerStrip 3 - PowerStrip 3 = 0.9999994084865502
UPS 1 - UPS 1 - SDT 6 - SDT 6 - Subpainel 3 - Subpainel 3 - PowerStrip 3 - PowerStrip 3 = 0.9999993358109429
UPS 1 - UPS 1 - SDT 3 - SDT 3 - Subpainel 3 - Subpainel 3 - PowerStrip 3 - PowerStrip 3 = 0.9999993215710126

UPS 9 - UPS 9 - SDT 6 - SDT 6 - Subpainel 7 - Subpainel 7 - PowerStrip 0 - PowerStrip 0 = 0.9999993904154091
UPS 9 - UPS 9 - SDT 3 - SDT 3 - Subpainel 7 - Subpainel 7 - PowerStrip 0 - PowerStrip 0 = 0.9999993624523494
UPS 1 - UPS 1 - SDT 6 - SDT 6 - Subpainel 7 - Subpainel 7 - PowerStrip 0 - PowerStrip 0 = 0.9999992969877293
UPS 1 - UPS 1 - SDT 3 - SDT 3 - Subpainel 7 - Subpainel 7 - PowerStrip 0 - PowerStrip 0 = 0.9999992838942006

UPS 9 - UPS 9 - SDT 6 - SDT 6 - Subpainel 6 - Subpainel 6 - PowerStrip 5 - PowerStrip 5 = 0.9999993645524701
UPS 9 - UPS 9 - SDT 3 - SDT 3 - Subpainel 6 - Subpainel 6 - PowerStrip 5 - PowerStrip 5 = 0.9999993466078496
UPS 1 - UPS 1 - SDT 6 - SDT 6 - Subpainel 6 - Subpainel 6 - PowerStrip 5 - PowerStrip 5 = 0.9999992713172163
UPS 1 - UPS 1 - SDT 3 - SDT 3 - Subpainel 6 - Subpainel 6 - PowerStrip 5 - PowerStrip 5 = 0.999999253891164

