UPS 6 - UPS 6 - SDT 2 - SDT 2 - Subpainel 8 - Subpainel 8 - PowerStrip 9 - STS 0 = 0.9996960418966097 - 0.9996967733151223
UPS 6 - UPS 6 - SDT 2 - SDT 2 - Subpainel 8 - Subpainel 8 - PowerStrip 2 - STS 0 = 0.9996927796046959 - 0.999693515008944
UPS 6 - UPS 6 - SDT 2 - SDT 2 - Subpainel 8 - Subpainel 8 - PowerStrip 9 - STS 9 = 0.9996698629551793 - 0.9996706265575965
UPS 6 - UPS 6 - SDT 2 - SDT 2 - Subpainel 8 - Subpainel 8 - PowerStrip 2 - STS 9 = 0.9996665992585363 - 0.9996673680044367

UPS 5 - UPS 5 - SDT 3 - SDT 3 - Subpainel 5 - Subpainel 5 - PowerStrip 9 - STS 0 = 0.9996964312655457 - 0.9996968462723596
UPS 5 - UPS 5 - SDT 3 - SDT 3 - Subpainel 5 - Subpainel 5 - PowerStrip 2 - STS 0 = 0.9996929606907099 - 0.9996935866289969
UPS 5 - UPS 5 - SDT 3 - SDT 3 - Subpainel 5 - Subpainel 5 - PowerStrip 9 - STS 9 = 0.9996700466432622 - 0.9996706975567782
UPS 5 - UPS 5 - SDT 3 - SDT 3 - Subpainel 5 - Subpainel 5 - PowerStrip 2 - STS 9 = 0.9996667845285025 - 0.9996674396585966

UPS 6 - UPS 6 - SDT 0 - SDT 0 - Subpainel 4 - Subpainel 4 - PowerStrip 9 - STS 0 = 0.9996957861323295 - 0.999696670170049
UPS 6 - UPS 6 - SDT 0 - SDT 0 - Subpainel 4 - Subpainel 4 - PowerStrip 2 - STS 0 = 0.9996925734464126 - 0.9996934119974316
UPS 6 - UPS 6 - SDT 0 - SDT 0 - Subpainel 4 - Subpainel 4 - PowerStrip 9 - STS 9 = 0.9996696024005091 - 0.9996705227044684
UPS 6 - UPS 6 - SDT 0 - SDT 0 - Subpainel 4 - Subpainel 4 - PowerStrip 2 - STS 9 = 0.9996663387262582 - 0.9996672648574912

UPS 2 - UPS 2 - SDT 6 - SDT 6 - Subpainel 8 - Subpainel 8 - PowerStrip 9 - STS 0 = 0.9996963649355602 - 0.9996968993958821
UPS 2 - UPS 2 - SDT 6 - SDT 6 - Subpainel 8 - Subpainel 8 - PowerStrip 2 - STS 0 = 0.9996931016039479 - 0.999693640614851
UPS 2 - UPS 2 - SDT 6 - SDT 6 - Subpainel 8 - Subpainel 8 - PowerStrip 9 - STS 9 = 0.9996701899414616 - 0.9996707515116255
UPS 2 - UPS 2 - SDT 6 - SDT 6 - Subpainel 8 - Subpainel 8 - PowerStrip 2 - STS 9 = 0.999666928827162 - 0.9996674939361756

UPS 6 - UPS 6 - SDT 1 - SDT 1 - Subpainel 9 - Subpainel 9 - PowerStrip 9 - STS 0 = 0.9996960567223782 - 0.9996967795822177
UPS 6 - UPS 6 - SDT 1 - SDT 1 - Subpainel 9 - Subpainel 9 - PowerStrip 2 - STS 0 = 0.9996927944029795 - 0.9996935213133429
UPS 6 - UPS 6 - SDT 1 - SDT 1 - Subpainel 9 - Subpainel 9 - PowerStrip 9 - STS 9 = 0.9996698777575519 - 0.999670632277434
UPS 6 - UPS 6 - SDT 1 - SDT 1 - Subpainel 9 - Subpainel 9 - PowerStrip 2 - STS 9 = 0.9996666138592312 - 0.9996673736540818

O melhor resultado foi UPS 5 - UPS 5 - SDT 3 - SDT 3 - Subpainel 5 - Subpainel 5 - PowerStrip 9 - STS 0 = 0.9996964312655457

CONSTRUÍDO COM SUCESSO (tempo total: 144 minutos 51 segundos)