SubPainel 9 = 0.9999758382613213
SubPainel 3 = 0.9999799517337992
SubPainel 4 = 0.9999516204137664
SubPainel 5 = 0.9999481122591274
SubPainel 8 = 0.9999758588952427
SubPainel 1 = 0.9999780508014201
SubPainel 3 = 0.9999799517337992
SubPainel 2 = 0.9999587358734842
SubPainel 6 = 0.9999767315372019
SubPainel 7 = 0.9999738249016797
SubPainel 9 = 0.9999758382613213
SubPainel 3 = 0.9999799517337992
SubPainel 5 = 0.9999481122591274
SubPainel 1 = 0.9999780508014201
SubPainel 0 = 0.9999598026309178
