UPS 6 - UPS 6 - SDT 8 - SDT 8 - Subpainel 0 - Subpainel 0 - PowerStrip 9 - STS 0 = 0.9996967225496921
UPS 6 - UPS 6 - SDT 8 - SDT 8 - Subpainel 0 - Subpainel 0 - PowerStrip 2 - STS 0 = 0.999693464290576
UPS 6 - UPS 6 - SDT 8 - SDT 8 - Subpainel 0 - Subpainel 0 - PowerStrip 9 - STS 9 = 0.9996705754575164
UPS 6 - UPS 6 - SDT 8 - SDT 8 - Subpainel 0 - Subpainel 0 - PowerStrip 2 - STS 9 = 0.9996685207740001

UPS 0 - UPS 0 - SDT 1 - SDT 1 - Subpainel 4 - Subpainel 4 - PowerStrip 9 - STS 0 = 0.9996969126939237
UPS 0 - UPS 0 - SDT 1 - SDT 1 - Subpainel 4 - Subpainel 4 - PowerStrip 2 - STS 0 = 0.9996936540392328
UPS 0 - UPS 0 - SDT 1 - SDT 1 - Subpainel 4 - Subpainel 4 - PowerStrip 9 - STS 9 = 0.999670765468219
UPS 0 - UPS 0 - SDT 1 - SDT 1 - Subpainel 4 - Subpainel 4 - PowerStrip 2 - STS 9 = 0.9996675072299093

UPS 0 - UPS 0 - SDT 5 - SDT 5 - Subpainel 6 - Subpainel 6 - PowerStrip 9 - STS 0 = 0.9996969502354213
UPS 0 - UPS 0 - SDT 5 - SDT 5 - Subpainel 6 - Subpainel 6 - PowerStrip 2 - STS 0 = 0.9996936924461388
UPS 0 - UPS 0 - SDT 5 - SDT 5 - Subpainel 6 - Subpainel 6 - PowerStrip 9 - STS 9 = 0.9996708026431791
UPS 0 - UPS 0 - SDT 5 - SDT 5 - Subpainel 6 - Subpainel 6 - PowerStrip 2 - STS 9 = 0.9996675445423112

UPS 7 - UPS 7 - SDT 0 - SDT 0 - Subpainel 6 - Subpainel 6 - PowerStrip 9 - STS 0 = 0.9996969074559899
UPS 7 - UPS 7 - SDT 0 - SDT 0 - Subpainel 6 - Subpainel 6 - PowerStrip 2 - STS 0 = 0.9996936507240581
UPS 7 - UPS 7 - SDT 0 - SDT 0 - Subpainel 6 - Subpainel 6 - PowerStrip 9 - STS 9 = 0.9996707600480398
UPS 7 - UPS 7 - SDT 0 - SDT 0 - Subpainel 6 - Subpainel 6 - PowerStrip 2 - STS 9 = 0.9996675019972087

UPS 8 - UPS 8 - SDT 8 - SDT 8 - Subpainel 6 - Subpainel 6 - PowerStrip 9 - STS 0 = 0.9996969600777035
UPS 8 - UPS 8 - SDT 8 - SDT 8 - Subpainel 6 - Subpainel 6 - PowerStrip 2 - STS 0 = 0.9996937018386507
UPS 8 - UPS 8 - SDT 8 - SDT 8 - Subpainel 6 - Subpainel 6 - PowerStrip 9 - STS 9 = 0.9996708087092088
UPS 8 - UPS 8 - SDT 8 - SDT 8 - Subpainel 6 - Subpainel 6 - PowerStrip 2 - STS 9 = 0.9996675573495618

