UPS 3 - UPS 3 - SDT 6 - Subpainel 3 - PowerStrip 6 - STS 5 = 0.9997073125033209 -- 0.9997073125033209
UPS 3 - UPS 3 - SDT 6 - Subpainel 1 - PowerStrip 6 - STS 5 = 0.9997053048901803 -- 0.9997053048901803
UPS 3 - UPS 3 - SDT 3 - Subpainel 3 - PowerStrip 6 - STS 5 = 0.9997033207395023 -- 0.9997033207395023
UPS 3 - UPS 3 - SDT 3 - Subpainel 1 - PowerStrip 6 - STS 5 = 0.9997013114359921 -- 0.9997013114359921

UPS 2 - UPS 2 - SDT 6 - Subpainel 3 - PowerStrip 7 - STS 2 = 0.9996157358462882 -- 0.9996157358462882
UPS 2 - UPS 2 - SDT 6 - Subpainel 1 - PowerStrip 7 - STS 2 = 0.9996137274705005 -- 0.9996137274705005
UPS 2 - UPS 2 - SDT 3 - Subpainel 3 - PowerStrip 7 - STS 2 = 0.9996117445740633 -- 0.9996117445740633
UPS 2 - UPS 2 - SDT 3 - Subpainel 1 - PowerStrip 7 - STS 2 = 0.9996097369248642 -- 0.9996097369248642

UPS 3 - UPS 3 - SDT 6 - Subpainel 3 - PowerStrip 9 - STS 3 = 0.999613373585296 -- 0.999613373585296
UPS 3 - UPS 3 - SDT 6 - Subpainel 1 - PowerStrip 9 - STS 3 = 0.9996113649700598 -- 0.9996113649700598
UPS 3 - UPS 3 - SDT 3 - Subpainel 3 - PowerStrip 9 - STS 3 = 0.9996093815079127 -- 0.9996093815079127
UPS 3 - UPS 3 - SDT 3 - Subpainel 1 - PowerStrip 9 - STS 3 = 0.999607373129147 -- 0.999607373129147

UPS 7 - UPS 7 - SDT 6 - Subpainel 3 - PowerStrip 4 - STS 1 = 0.9997517358548986 -- 0.9997517358548986
UPS 7 - UPS 7 - SDT 6 - Subpainel 1 - PowerStrip 4 - STS 1 = 0.9997497285591549 -- 0.9997497285591549
UPS 7 - UPS 7 - SDT 3 - Subpainel 3 - PowerStrip 4 - STS 1 = 0.999747746330751 -- 0.999747746330751
UPS 7 - UPS 7 - SDT 3 - Subpainel 1 - PowerStrip 4 - STS 1 = 0.999745739294954 -- 0.999745739294954

UPS 0 - UPS 0 - SDT 6 - Subpainel 3 - PowerStrip 9 - STS 3 = 0.9996202375091088 -- 0.9996202375091088
UPS 0 - UPS 0 - SDT 6 - Subpainel 1 - PowerStrip 9 - STS 3 = 0.9996182432354231 -- 0.9996182432354231
UPS 0 - UPS 0 - SDT 3 - Subpainel 3 - PowerStrip 9 - STS 3 = 0.9996162469879321 -- 0.9996162469879321
UPS 0 - UPS 0 - SDT 3 - Subpainel 1 - PowerStrip 9 - STS 3 = 0.9996142402312618 -- 0.9996142402312618

O melhor resultado foi UPS 7 - UPS 7 - SDT 6 - Subpainel 3 - PowerStrip 4 - STS 1 = 0.9997517358548986