UPS 9 - UPS 9 - SDT 6 - SDT 6 - Subpainel 2 - Subpainel 2 - PowerStrip 2 - PowerStrip 2 = 0.9999907919604475
UPS 9 - UPS 9 - SDT 3 - SDT 3 - Subpainel 2 - Subpainel 2 - PowerStrip 2 - PowerStrip 2 = 0.9999904450037915
UPS 1 - UPS 1 - SDT 6 - SDT 6 - Subpainel 2 - Subpainel 2 - PowerStrip 2 - PowerStrip 2 = 0.999989191497324
UPS 1 - UPS 1 - SDT 3 - SDT 3 - Subpainel 2 - Subpainel 2 - PowerStrip 2 - PowerStrip 2 = 0.9999888172876762

UPS 9 - UPS 9 - SDT 6 - SDT 6 - Subpainel 6 - Subpainel 6 - PowerStrip 8 - PowerStrip 8 = 0.9999916657562142
UPS 9 - UPS 9 - SDT 3 - SDT 3 - Subpainel 6 - Subpainel 6 - PowerStrip 8 - PowerStrip 8 = 0.999991330976932
UPS 1 - UPS 1 - SDT 6 - SDT 6 - Subpainel 6 - Subpainel 6 - PowerStrip 8 - PowerStrip 8 = 0.9999902093939276
UPS 1 - UPS 1 - SDT 3 - SDT 3 - Subpainel 6 - Subpainel 6 - PowerStrip 8 - PowerStrip 8 = 0.9999897618061504

UPS 9 - UPS 9 - SDT 6 - SDT 6 - Subpainel 2 - Subpainel 2 - PowerStrip 6 - PowerStrip 6 = 0.9999897774892111
UPS 9 - UPS 9 - SDT 3 - SDT 3 - Subpainel 2 - Subpainel 2 - PowerStrip 6 - PowerStrip 6 = 0.9999894074585703
UPS 1 - UPS 1 - SDT 6 - SDT 6 - Subpainel 2 - Subpainel 2 - PowerStrip 6 - PowerStrip 6 = 0.9999880915611468
UPS 1 - UPS 1 - SDT 3 - SDT 3 - Subpainel 2 - Subpainel 2 - PowerStrip 6 - PowerStrip 6 = 0.9999876783528945

UPS 9 - UPS 9 - SDT 6 - SDT 6 - Subpainel 3 - Subpainel 3 - PowerStrip 4 - PowerStrip 4 = 0.9999925324786993
UPS 9 - UPS 9 - SDT 3 - SDT 3 - Subpainel 3 - Subpainel 3 - PowerStrip 4 - PowerStrip 4 = 0.9999921339846575
UPS 1 - UPS 1 - SDT 6 - SDT 6 - Subpainel 3 - Subpainel 3 - PowerStrip 4 - PowerStrip 4 = 0.9999909992546937
UPS 1 - UPS 1 - SDT 3 - SDT 3 - Subpainel 3 - Subpainel 3 - PowerStrip 4 - PowerStrip 4 = 0.9999906658335023

UPS 9 - UPS 9 - SDT 6 - SDT 6 - Subpainel 4 - Subpainel 4 - PowerStrip 4 - PowerStrip 4 = 0.9999898958463925
UPS 9 - UPS 9 - SDT 3 - SDT 3 - Subpainel 4 - Subpainel 4 - PowerStrip 4 - PowerStrip 4 = 0.9999895336872796
UPS 1 - UPS 1 - SDT 6 - SDT 6 - Subpainel 4 - Subpainel 4 - PowerStrip 4 - PowerStrip 4 = 0.9999882215943244
UPS 1 - UPS 1 - SDT 3 - SDT 3 - Subpainel 4 - Subpainel 4 - PowerStrip 4 - PowerStrip 4 = 0.9999878289195493

