UPS 9 - UPS 9 - SDT 6 - SDT 6 - Subpainel 6 - Subpainel 6 - PowerStrip 9 - PowerStrip 9 = 0.9999996118879726 --- 
UPS 9 - UPS 9 - SDT 3 - SDT 3 - Subpainel 6 - Subpainel 6 - PowerStrip 9 - PowerStrip 9 = 0.9999995980315456 --- 
UPS 1 - UPS 1 - SDT 6 - SDT 6 - Subpainel 6 - Subpainel 6 - PowerStrip 9 - PowerStrip 9 = 0.9999995698612203 --- 
UPS 1 - UPS 1 - SDT 3 - SDT 3 - Subpainel 6 - Subpainel 6 - PowerStrip 9 - PowerStrip 9 = 0.9999995552863259 --- 

UPS 9 - UPS 9 - SDT 6 - SDT 6 - Subpainel 0 - Subpainel 0 - PowerStrip 2 - PowerStrip 2 = 0.9999995603046931 --- 
UPS 9 - UPS 9 - SDT 3 - SDT 3 - Subpainel 0 - Subpainel 0 - PowerStrip 2 - PowerStrip 2 = 0.9999995551289579 --- 
UPS 1 - UPS 1 - SDT 6 - SDT 6 - Subpainel 0 - Subpainel 0 - PowerStrip 2 - PowerStrip 2 = 0.9999995184973864 --- 
UPS 1 - UPS 1 - SDT 3 - SDT 3 - Subpainel 0 - Subpainel 0 - PowerStrip 2 - PowerStrip 2 = 0.9999995098202511 --- 

UPS 9 - UPS 9 - SDT 6 - SDT 6 - Subpainel 9 - Subpainel 9 - PowerStrip 7 - PowerStrip 7 = 0.9999995758497546 --- 
UPS 9 - UPS 9 - SDT 3 - SDT 3 - Subpainel 9 - Subpainel 9 - PowerStrip 7 - PowerStrip 7 = 0.9999995807626257 --- 
UPS 1 - UPS 1 - SDT 6 - SDT 6 - Subpainel 9 - Subpainel 9 - PowerStrip 7 - PowerStrip 7 = 0.9999995423099938 --- 
UPS 1 - UPS 1 - SDT 3 - SDT 3 - Subpainel 9 - Subpainel 9 - PowerStrip 7 - PowerStrip 7 = 0.9999995283808011 --- 

UPS 9 - UPS 9 - SDT 6 - SDT 6 - Subpainel 1 - Subpainel 1 - PowerStrip 1 - PowerStrip 1 = 0.9999996083454323 --- 
UPS 9 - UPS 9 - SDT 3 - SDT 3 - Subpainel 1 - Subpainel 1 - PowerStrip 1 - PowerStrip 1 = 0.9999995935785944 --- 
UPS 1 - UPS 1 - SDT 6 - SDT 6 - Subpainel 1 - Subpainel 1 - PowerStrip 1 - PowerStrip 1 = 0.9999995699311178 --- 
UPS 1 - UPS 1 - SDT 3 - SDT 3 - Subpainel 1 - Subpainel 1 - PowerStrip 1 - PowerStrip 1 = 0.9999995583824536 --- 

UPS 9 - UPS 9 - SDT 6 - SDT 6 - Subpainel 9 - Subpainel 9 - PowerStrip 1 - PowerStrip 1 = 0.9999995995118548 --- 
UPS 9 - UPS 9 - SDT 3 - SDT 3 - Subpainel 9 - Subpainel 9 - PowerStrip 1 - PowerStrip 1 = 0.9999995910858827 --- 
UPS 1 - UPS 1 - SDT 6 - SDT 6 - Subpainel 9 - Subpainel 9 - PowerStrip 1 - PowerStrip 1 = 0.9999995579083457 --- 
UPS 1 - UPS 1 - SDT 3 - SDT 3 - Subpainel 9 - Subpainel 9 - PowerStrip 1 - PowerStrip 1 = 0.99999954893886 --- 

