UPS 6 - UPS 6 - SDT 1 - SDT 1 - Subpainel 7 - Subpainel 7 - PowerStrip 9 - STS 0 = 0.9996874883391905 - 0.9996939381075677
UPS 6 - UPS 6 - SDT 1 - SDT 1 - Subpainel 7 - Subpainel 7 - PowerStrip 2 - STS 0 = 0.9996841939447991 - 0.9996906800160807
UPS 6 - UPS 6 - SDT 1 - SDT 1 - Subpainel 7 - Subpainel 7 - PowerStrip 9 - STS 9 = 0.999661059383929 - 0.9996677907972222
UPS 6 - UPS 6 - SDT 1 - SDT 1 - Subpainel 7 - Subpainel 7 - PowerStrip 2 - STS 9 = 0.9996577654979466 - 0.9996645326694735

UPS 7 - UPS 7 - SDT 5 - SDT 5 - Subpainel 8 - Subpainel 8 - PowerStrip 9 - STS 0 = 0.9996911588568546 - 0.9996953871453605
UPS 7 - UPS 7 - SDT 5 - SDT 5 - Subpainel 8 - Subpainel 8 - PowerStrip 2 - STS 0 = 0.9996878730262656 - 0.9996921002306204
UPS 7 - UPS 7 - SDT 5 - SDT 5 - Subpainel 8 - Subpainel 8 - PowerStrip 9 - STS 9 = 0.9996647989160894 - 0.9996691746362757
UPS 7 - UPS 7 - SDT 5 - SDT 5 - Subpainel 8 - Subpainel 8 - PowerStrip 2 - STS 9 = 0.9996615151031311 - 0.9996659532748537

UPS 1 - UPS 1 - SDT 8 - SDT 8 - Subpainel 4 - Subpainel 4 - PowerStrip 9 - STS 0 = 0.9996915591113041 - 0.999695507527034
UPS 1 - UPS 1 - SDT 8 - SDT 8 - Subpainel 4 - Subpainel 4 - PowerStrip 2 - STS 0 = 0.9996883834644389 - 0.9996922896700479
UPS 1 - UPS 1 - SDT 8 - SDT 8 - Subpainel 4 - Subpainel 4 - PowerStrip 9 - STS 9 = 0.9996639539450883 - 0.9996694007826612
UPS 1 - UPS 1 - SDT 8 - SDT 8 - Subpainel 4 - Subpainel 4 - PowerStrip 2 - STS 9 = 0.9996620379630657 - 0.9996661545009154

UPS 5 - UPS 5 - SDT 8 - SDT 8 - Subpainel 1 - Subpainel 1 - PowerStrip 9 - STS 0 = 0.9996899417882534 - 0.9996948988530546
UPS 5 - UPS 5 - SDT 8 - SDT 8 - Subpainel 1 - Subpainel 1 - PowerStrip 2 - STS 0 = 0.9996866538192201 - 0.9996916408906089
UPS 5 - UPS 5 - SDT 8 - SDT 8 - Subpainel 1 - Subpainel 1 - PowerStrip 9 - STS 9 = 0.9996635600444802 - 0.9996687397339004
UPS 5 - UPS 5 - SDT 8 - SDT 8 - Subpainel 1 - Subpainel 1 - PowerStrip 2 - STS 9 = 0.9996602701176219 - 0.9996654930984857

UPS 3 - UPS 3 - SDT 6 - SDT 6 - Subpainel 2 - Subpainel 2 - PowerStrip 9 - STS 0 = 0.9996881584324329 - 0.999694204451869
UPS 3 - UPS 3 - SDT 6 - SDT 6 - Subpainel 2 - Subpainel 2 - PowerStrip 2 - STS 0 = 0.9996848668862127 - 0.9996909467473738
UPS 3 - UPS 3 - SDT 6 - SDT 6 - Subpainel 2 - Subpainel 2 - PowerStrip 9 - STS 9 = 0.9996536099606153 - 0.9996680576873224
UPS 3 - UPS 3 - SDT 6 - SDT 6 - Subpainel 2 - Subpainel 2 - PowerStrip 2 - STS 9 = 0.9996584502260452 - 0.9996647992703918

O melhor resultado foi UPS 1 - UPS 1 - SDT 8 - SDT 8 - Subpainel 4 - Subpainel 4 - PowerStrip 9 - STS 0 = 0.9996915591113041

CONSTRUÍDO COM SUCESSO (tempo total: 139 minutos 41 segundos)