UPS 2 = 0.999803139918303
UPS 3 = 0.9997750913691313
UPS 0 = 0.9998432264006741
UPS 8 = 0.9998521803506545
UPS 7 = 0.9998342243773053
UPS 6 = 0.9997560603750572
UPS 8 = 0.9998521803506545
UPS 3 = 0.9997750913691313
UPS 7 = 0.9998342243773053
UPS 1 = 0.9998737014856911
