UPS 4 - UPS 4 - SDT 6 - Subpainel 3 - PowerStrip 6 - STS 7 = 0.9997037606262362 -- 0.9997037606262362
UPS 4 - UPS 4 - SDT 6 - Subpainel 1 - PowerStrip 6 - STS 7 = 0.999701813128962 -- 0.999701813128962
UPS 4 - UPS 4 - SDT 3 - Subpainel 3 - PowerStrip 6 - STS 7 = 0.9996998909484243 -- 0.9996998909484243
UPS 4 - UPS 4 - SDT 3 - Subpainel 1 - PowerStrip 6 - STS 7 = 0.9996979442293865 -- 0.9996979442293865

UPS 4 - UPS 4 - SDT 6 - Subpainel 3 - PowerStrip 4 - STS 5 = 0.9997372780144054 -- 0.9997372780144054
UPS 4 - UPS 4 - SDT 6 - Subpainel 1 - PowerStrip 4 - STS 5 = 0.9997353304728037 -- 0.9997353304728037
UPS 4 - UPS 4 - SDT 3 - Subpainel 3 - PowerStrip 4 - STS 5 = 0.9997334081958644 -- 0.9997334081958644
UPS 4 - UPS 4 - SDT 3 - Subpainel 1 - PowerStrip 4 - STS 5 = 0.9997314600957224 -- 0.9997314600957224

UPS 7 - UPS 7 - SDT 6 - Subpainel 3 - PowerStrip 6 - STS 3 = 0.999624962808102 -- 0.999624962808102
UPS 7 - UPS 7 - SDT 6 - Subpainel 1 - PowerStrip 6 - STS 3 = 0.9996230153493924 -- 0.9996230153493924
UPS 7 - UPS 7 - SDT 3 - Subpainel 3 - PowerStrip 6 - STS 3 = 0.9996210933077812 -- 0.9996210933077812
UPS 7 - UPS 7 - SDT 3 - Subpainel 1 - PowerStrip 6 - STS 3 = 0.9996191466349238 -- 0.9996191466349238

UPS 0 - UPS 0 - SDT 6 - Subpainel 3 - PowerStrip 4 - STS 4 = 0.9997537684197061 -- 0.9997537684197061
UPS 0 - UPS 0 - SDT 6 - Subpainel 1 - PowerStrip 4 - STS 4 = 0.99975182167481 -- 0.99975182167481
UPS 0 - UPS 0 - SDT 3 - Subpainel 3 - PowerStrip 4 - STS 4 = 0.9997498994389477 -- 0.9997498994389477
UPS 0 - UPS 0 - SDT 3 - Subpainel 1 - PowerStrip 4 - STS 4 = 0.9997479523836988 -- 0.9997479523836988

UPS 2 - UPS 2 - SDT 6 - Subpainel 3 - PowerStrip 0 - STS 4 = 0.9997508491117768 -- 0.9997508491117768
UPS 2 - UPS 2 - SDT 6 - Subpainel 1 - PowerStrip 0 - STS 4 = 0.9997489014657778 -- 0.9997489014657778
UPS 2 - UPS 2 - SDT 3 - Subpainel 3 - PowerStrip 0 - STS 4 = 0.9997469790880318 -- 0.9997469790880318
UPS 2 - UPS 2 - SDT 3 - Subpainel 1 - PowerStrip 0 - STS 4 = 0.999745031510807 -- 0.999745031510807

O melhor resultado foi UPS 0 - UPS 0 - SDT 6 - Subpainel 3 - PowerStrip 4 - STS 4 = 0.9997537684197061