UPS 7 - UPS 7 - SDT 8 - SDT 8 - Subpainel 2 - Subpainel 2 - PowerStrip 9 - STS 0 = 0.9998386877990744 ---- 0.9998438656717802
UPS 7 - UPS 7 - SDT 8 - SDT 8 - Subpainel 2 - Subpainel 2 - PowerStrip 2 - STS 0 = 0.9998371215133018 ---- 0.999842215395732
UPS 7 - UPS 7 - SDT 8 - SDT 8 - Subpainel 2 - Subpainel 2 - PowerStrip 9 - STS 9 = 0.9998252750057838 ---- 0.9998305907222457
UPS 7 - UPS 7 - SDT 8 - SDT 8 - Subpainel 2 - Subpainel 2 - PowerStrip 2 - STS 9 = 0.999823589865992 ---- 0.9998289400842321

UPS 8 - UPS 8 - SDT 2 - SDT 2 - Subpainel 8 - Subpainel 8 - PowerStrip 9 - STS 0 = 0.9998405902439554 ---- 0.9998445583762429
UPS 8 - UPS 8 - SDT 2 - SDT 2 - Subpainel 8 - Subpainel 8 - PowerStrip 2 - STS 0 = 0.9998389149506253 ---- 0.9998429048456582
UPS 8 - UPS 8 - SDT 2 - SDT 2 - Subpainel 8 - Subpainel 8 - PowerStrip 9 - STS 9 = 0.9998271062820904 ---- 0.9998312842926691
UPS 8 - UPS 8 - SDT 2 - SDT 2 - Subpainel 8 - Subpainel 8 - PowerStrip 2 - STS 9 = 0.9998254298605513 ---- 0.999829628320122

UPS 6 - UPS 6 - SDT 7 - SDT 7 - Subpainel 7 - Subpainel 7 - PowerStrip 9 - STS 0 = 0.9998360838048813 ---- 0.9998427837323198
UPS 6 - UPS 6 - SDT 7 - SDT 7 - Subpainel 7 - Subpainel 7 - PowerStrip 2 - STS 0 = 0.9998358155959534 ---- 0.9998411334405641
UPS 6 - UPS 6 - SDT 7 - SDT 7 - Subpainel 7 - Subpainel 7 - PowerStrip 9 - STS 9 = 0.9998225165129634 ---- 0.9998295113558731
UPS 6 - UPS 6 - SDT 7 - SDT 7 - Subpainel 7 - Subpainel 7 - PowerStrip 2 - STS 9 = 0.9998208194751097 ---- 0.9998278580582763

UPS 3 - UPS 3 - SDT 6 - SDT 6 - Subpainel 6 - Subpainel 6 - PowerStrip 9 - STS 0 = 0.99983753730861 ---- 0.9998433694743789
UPS 3 - UPS 3 - SDT 6 - SDT 6 - Subpainel 6 - Subpainel 6 - PowerStrip 2 - STS 0 = 0.9998358411221767 ---- 0.9998417140750129
UPS 3 - UPS 3 - SDT 6 - SDT 6 - Subpainel 6 - Subpainel 6 - PowerStrip 9 - STS 9 = 0.9998239863762428 ---- 0.9998300912862849
UPS 3 - UPS 3 - SDT 6 - SDT 6 - Subpainel 6 - Subpainel 6 - PowerStrip 2 - STS 9 = 0.9998222878972425 ---- 0.9998284425737195

UPS 9 - UPS 9 - SDT 0 - SDT 0 - Subpainel 8 - Subpainel 8 - PowerStrip 9 - STS 0 = 0.9998408275711964 ---- 0.9998448909140616
UPS 9 - UPS 9 - SDT 0 - SDT 0 - Subpainel 8 - Subpainel 8 - PowerStrip 2 - STS 0 = 0.9998398058300471 ---- 0.9998432427457622
UPS 9 - UPS 9 - SDT 0 - SDT 0 - Subpainel 8 - Subpainel 8 - PowerStrip 9 - STS 9 = 0.99982801223963 ---- 0.9998316115274595
UPS 9 - UPS 9 - SDT 0 - SDT 0 - Subpainel 8 - Subpainel 8 - PowerStrip 2 - STS 9 = 0.9998263394739997 ---- 0.9998299565640772

O melhor resultado foi UPS 9 - UPS 9 - SDT 0 - SDT 0 - Subpainel 8 - Subpainel 8 - PowerStrip 9 - STS 0 = 0.9998448909140616

CONSTRUÍDO COM SUCESSO (tempo total: 687 minutos 51 segundos)