UPS 1 - UPS 1 - SDT 1 - SDT 1 - Subpainel 3 - PowerStrip 9 - STS 6 = 0.9993240376818405 -- 0.9993246387750644
UPS 1 - UPS 1 - SDT 1 - SDT 1 - Subpainel 3 - PowerStrip 2 - STS 6 = 0.9993207714924085 -- 0.9993213474712496
UPS 1 - UPS 1 - SDT 1 - SDT 1 - Subpainel 1 - PowerStrip 9 - STS 6 = 0.9993202333699132 -- 0.9993208050473782
UPS 1 - UPS 1 - SDT 1 - SDT 1 - Subpainel 1 - PowerStrip 2 - STS 6 = 0.9993169724230528 -- 0.9993175488946476

UPS 6 - UPS 6 - SDT 4 - SDT 4 - Subpainel 3 - PowerStrip 9 - STS 4 = 0.9995651004492501 -- 0.9995660254659423
UPS 6 - UPS 6 - SDT 4 - SDT 4 - Subpainel 3 - PowerStrip 2 - STS 4 = 0.9995618797077813 -- 0.9995627657218281
UPS 6 - UPS 6 - SDT 4 - SDT 4 - Subpainel 1 - PowerStrip 9 - STS 4 = 0.9995613367257102 -- 0.9995622259827676
UPS 6 - UPS 6 - SDT 4 - SDT 4 - Subpainel 1 - PowerStrip 2 - STS 4 = 0.9995580736525735 -- 0.9995589655543996

UPS 5 - UPS 5 - SDT 8 - SDT 8 - Subpainel 3 - PowerStrip 9 - STS 0 = 0.9996562967454834 -- 0.999656839929507
UPS 5 - UPS 5 - SDT 8 - SDT 8 - Subpainel 3 - PowerStrip 2 - STS 0 = 0.9996530347977703 -- 0.9996535818864077
UPS 5 - UPS 5 - SDT 8 - SDT 8 - Subpainel 1 - PowerStrip 9 - STS 0 = 0.9996524916889236 -- 0.999653039435329
UPS 5 - UPS 5 - SDT 8 - SDT 8 - Subpainel 1 - PowerStrip 2 - STS 0 = 0.9996492297972697 -- 0.9996497814530115

UPS 2 - UPS 2 - SDT 3 - SDT 3 - Subpainel 3 - PowerStrip 9 - STS 6 = 0.999323664447117 -- 0.9993245064870516
UPS 2 - UPS 2 - SDT 3 - SDT 3 - Subpainel 3 - PowerStrip 2 - STS 6 = 0.9993204022630684 -- 0.999321249221233
UPS 2 - UPS 2 - SDT 3 - SDT 3 - Subpainel 1 - PowerStrip 9 - STS 6 = 0.9993198588369269 -- 0.9993207067522765
UPS 2 - UPS 2 - SDT 3 - SDT 3 - Subpainel 1 - PowerStrip 2 - STS 6 = 0.9993165970331337 -- 0.9993174498525904

UPS 4 - UPS 4 - SDT 1 - SDT 1 - Subpainel 3 - PowerStrip 9 - STS 6 = 0.9993238239216174 -- 0.9993245505503975
UPS 4 - UPS 4 - SDT 1 - SDT 1 - Subpainel 3 - PowerStrip 2 - STS 6 = 0.999320563039305 -- 0.999321293265386
UPS 4 - UPS 4 - SDT 1 - SDT 1 - Subpainel 1 - PowerStrip 9 - STS 6 = 0.999320018119855 -- 0.9993207512189869
UPS 4 - UPS 4 - SDT 1 - SDT 1 - Subpainel 1 - PowerStrip 2 - STS 6 = 0.9993167593298617 -- 0.9993174941912373

O melhor resultado foi UPS 5 - UPS 5 - SDT 8 - SDT 8 - Subpainel 3 - PowerStrip 9 - STS 0 = 0.9996562967454834

CONSTRUÍDO COM SUCESSO (tempo total: 10 minutos 43 segundos)