UPS 4 - UPS 4 - SDT 8 - SDT 8 - Subpainel 3 - PowerStrip 9 - STS 7 = 0.9997382261068825
UPS 4 - UPS 4 - SDT 8 - SDT 8 - Subpainel 3 - PowerStrip 2 - STS 7 = 0.9997365717518162
UPS 4 - UPS 4 - SDT 8 - SDT 8 - Subpainel 1 - PowerStrip 9 - STS 7 = 0.9997362930242563
UPS 4 - UPS 4 - SDT 8 - SDT 8 - Subpainel 1 - PowerStrip 2 - STS 7 = 0.9997346364683921

UPS 4 - UPS 4 - SDT 3 - SDT 3 - Subpainel 3 - PowerStrip 9 - STS 8 = 0.9997532606088249
UPS 4 - UPS 4 - SDT 3 - SDT 3 - Subpainel 3 - PowerStrip 2 - STS 8 = 0.9997516059245226
UPS 4 - UPS 4 - SDT 3 - SDT 3 - Subpainel 1 - PowerStrip 9 - STS 8 = 0.9997513294782704
UPS 4 - UPS 4 - SDT 3 - SDT 3 - Subpainel 1 - PowerStrip 2 - STS 8 = 0.9997496734103029

UPS 8 - UPS 8 - SDT 6 - SDT 6 - Subpainel 3 - PowerStrip 9 - STS 9 = 0.9998121849987676
UPS 8 - UPS 8 - SDT 6 - SDT 6 - Subpainel 3 - PowerStrip 2 - STS 9 = 0.9998105274084664
UPS 8 - UPS 8 - SDT 6 - SDT 6 - Subpainel 1 - PowerStrip 9 - STS 9 = 0.9998102502071061
UPS 8 - UPS 8 - SDT 6 - SDT 6 - Subpainel 1 - PowerStrip 2 - STS 9 = 0.9998085946689811

UPS 9 - UPS 9 - SDT 3 - SDT 3 - Subpainel 3 - PowerStrip 9 - STS 6 = 0.9996565718894813
UPS 9 - UPS 9 - SDT 3 - SDT 3 - Subpainel 3 - PowerStrip 2 - STS 6 = 0.999654914216469
UPS 9 - UPS 9 - SDT 3 - SDT 3 - Subpainel 1 - PowerStrip 9 - STS 6 = 0.999654640292856
UPS 9 - UPS 9 - SDT 3 - SDT 3 - Subpainel 1 - PowerStrip 2 - STS 6 = 0.9996529896770822

UPS 4 - UPS 4 - SDT 1 - SDT 1 - Subpainel 3 - PowerStrip 9 - STS 2 = 0.9996687128512809
UPS 4 - UPS 4 - SDT 1 - SDT 1 - Subpainel 3 - PowerStrip 2 - STS 2 = 0.9996670553647357
UPS 4 - UPS 4 - SDT 1 - SDT 1 - Subpainel 1 - PowerStrip 9 - STS 2 = 0.9996667840149093
UPS 4 - UPS 4 - SDT 1 - SDT 1 - Subpainel 1 - PowerStrip 2 - STS 2 = 0.9996651253255634

UPS 5 - UPS 5 - SDT 8 - SDT 8 - Subpainel 3 - PowerStrip 9 - STS 8 = 0.9997536399135013
UPS 5 - UPS 5 - SDT 8 - SDT 8 - Subpainel 3 - PowerStrip 2 - STS 8 = 0.9997519859445907
UPS 5 - UPS 5 - SDT 8 - SDT 8 - Subpainel 1 - PowerStrip 9 - STS 8 = 0.9997517104649242
UPS 5 - UPS 5 - SDT 8 - SDT 8 - Subpainel 1 - PowerStrip 2 - STS 8 = 0.999750057740623

UPS 0 - UPS 0 - SDT 6 - SDT 6 - Subpainel 3 - PowerStrip 9 - STS 6 = 0.9996570062955266
UPS 0 - UPS 0 - SDT 6 - SDT 6 - Subpainel 3 - PowerStrip 2 - STS 6 = 0.9996553521936882
UPS 0 - UPS 0 - SDT 6 - SDT 6 - Subpainel 1 - PowerStrip 9 - STS 6 = 0.9996550775530645
UPS 0 - UPS 0 - SDT 6 - SDT 6 - Subpainel 1 - PowerStrip 2 - STS 6 = 0.999653423135589

UPS 7 - UPS 7 - SDT 3 - SDT 3 - Subpainel 3 - PowerStrip 9 - STS 4 = 0.9997797138681369
UPS 7 - UPS 7 - SDT 3 - SDT 3 - Subpainel 3 - PowerStrip 2 - STS 4 = 0.9997780589811979
UPS 7 - UPS 7 - SDT 3 - SDT 3 - Subpainel 1 - PowerStrip 9 - STS 4 = 0.9997777857764429
UPS 7 - UPS 7 - SDT 3 - SDT 3 - Subpainel 1 - PowerStrip 2 - STS 4 = 0.9997761310797083

UPS 8 - UPS 8 - SDT 0 - SDT 0 - Subpainel 3 - PowerStrip 9 - STS 6 = 0.9996569880283559
UPS 8 - UPS 8 - SDT 0 - SDT 0 - Subpainel 3 - PowerStrip 2 - STS 6 = 0.9996553340276302
UPS 8 - UPS 8 - SDT 0 - SDT 0 - Subpainel 1 - PowerStrip 9 - STS 6 = 0.9996550586195586
UPS 8 - UPS 8 - SDT 0 - SDT 0 - Subpainel 1 - PowerStrip 2 - STS 6 = 0.9996534038666209

UPS 0 - UPS 0 - SDT 7 - SDT 7 - Subpainel 3 - PowerStrip 9 - STS 6 = 0.9996570022400498
UPS 0 - UPS 0 - SDT 7 - SDT 7 - Subpainel 3 - PowerStrip 2 - STS 6 = 0.9996553470454544
UPS 0 - UPS 0 - SDT 7 - SDT 7 - Subpainel 1 - PowerStrip 9 - STS 6 = 0.9996550727279963
UPS 0 - UPS 0 - SDT 7 - SDT 7 - Subpainel 1 - PowerStrip 2 - STS 6 = 0.9996534183707956

