UPS 4 = 0.9998348608702832
UPS 4 = 0.9998348608702832
UPS 8 = 0.9998521803506545
UPS 9 = 0.999890416963454
UPS 4 = 0.9998348608702832
UPS 5 = 0.9998078724272917
UPS 0 = 0.9998432264006741
UPS 7 = 0.9998342243773053
UPS 8 = 0.9998521803506545
UPS 0 = 0.9998432264006741
