UPS 2 - UPS 2 - SDT 1 - SDT 1 - Subpainel 3 - PowerStrip 9 - STS 9 = 0.9996301359105386
UPS 2 - UPS 2 - SDT 1 - SDT 1 - Subpainel 3 - PowerStrip 2 - STS 9 = 0.9996268743325704
UPS 2 - UPS 2 - SDT 1 - SDT 1 - Subpainel 1 - PowerStrip 9 - STS 9 = 0.9996263308594807
UPS 2 - UPS 2 - SDT 1 - SDT 1 - Subpainel 1 - PowerStrip 2 - STS 9 = 0.9996230690482285

UPS 1 - UPS 1 - SDT 9 - SDT 9 - Subpainel 3 - PowerStrip 9 - STS 5 = 0.9995337040343201
UPS 1 - UPS 1 - SDT 9 - SDT 9 - Subpainel 3 - PowerStrip 2 - STS 5 = 0.9995304429102688
UPS 1 - UPS 1 - SDT 9 - SDT 9 - Subpainel 1 - PowerStrip 9 - STS 5 = 0.9995299006191625
UPS 1 - UPS 1 - SDT 9 - SDT 9 - Subpainel 1 - PowerStrip 2 - STS 5 = 0.9995266386877248

UPS 4 - UPS 4 - SDT 5 - SDT 5 - Subpainel 3 - PowerStrip 9 - STS 9 = 0.9996302701098979
UPS 4 - UPS 4 - SDT 5 - SDT 5 - Subpainel 3 - PowerStrip 2 - STS 9 = 0.9996270092656585
UPS 4 - UPS 4 - SDT 5 - SDT 5 - Subpainel 1 - PowerStrip 9 - STS 9 = 0.9996264660201808
UPS 4 - UPS 4 - SDT 5 - SDT 5 - Subpainel 1 - PowerStrip 2 - STS 9 = 0.9996232045175686

UPS 0 - UPS 0 - SDT 2 - SDT 2 - Subpainel 3 - PowerStrip 9 - STS 1 = 0.9995894614237653
UPS 0 - UPS 0 - SDT 2 - SDT 2 - Subpainel 3 - PowerStrip 2 - STS 1 = 0.9995861999150069
UPS 0 - UPS 0 - SDT 2 - SDT 2 - Subpainel 1 - PowerStrip 9 - STS 1 = 0.9995856576685259
UPS 0 - UPS 0 - SDT 2 - SDT 2 - Subpainel 1 - PowerStrip 2 - STS 1 = 0.9995823952751338

UPS 9 - UPS 9 - SDT 7 - SDT 7 - Subpainel 3 - PowerStrip 9 - STS 3 = 0.9993313077492979
UPS 9 - UPS 9 - SDT 7 - SDT 7 - Subpainel 3 - PowerStrip 2 - STS 3 = 0.9993280467046508
UPS 9 - UPS 9 - SDT 7 - SDT 7 - Subpainel 1 - PowerStrip 9 - STS 3 = 0.9993275038032622
UPS 9 - UPS 9 - SDT 7 - SDT 7 - Subpainel 1 - PowerStrip 2 - STS 3 = 0.9993242432304156

