UPS 9 - SDT 6 - Subpainel 9 - PowerStrip 1 = 0.9996381526790988 -- 0.9996381906751686
UPS 9 - SDT 3 - Subpainel 9 - PowerStrip 1 = 0.9996305983548964 -- 0.9996306387956096
UPS 1 - SDT 6 - Subpainel 9 - PowerStrip 1 = 0.9996047297332036 -- 0.9996047724507559
UPS 1 - SDT 3 - Subpainel 9 - PowerStrip 1 = 0.9995971752813793 -- 0.9995972207479246

UPS 9 - SDT 6 - Subpainel 9 - PowerStrip 2 = 0.9996398883187864 -- 0.9996399258117791
UPS 9 - SDT 3 - Subpainel 9 - PowerStrip 2 = 0.9996323340214474 -- 0.9996323739370373
UPS 1 - SDT 6 - Subpainel 9 - PowerStrip 2 = 0.9996064654095117 -- 0.9996065075499533
UPS 1 - SDT 3 - Subpainel 9 - PowerStrip 2 = 0.9995989112247895 -- 0.9995989559944595

UPS 9 - SDT 6 - Subpainel 4 - PowerStrip 0 = 0.9995813464828823 -- 0.9995814026397682
UPS 9 - SDT 3 - Subpainel 4 - PowerStrip 0 = 0.9995737923333717 -- 0.9995738512970548
UPS 1 - SDT 6 - Subpainel 4 - PowerStrip 0 = 0.9995479235634367 -- 0.9995479863272452
UPS 1 - SDT 3 - Subpainel 4 - PowerStrip 0 = 0.9995403693052988 -- 0.9995404351793882

UPS 9 - SDT 6 - Subpainel 3 - PowerStrip 5 = 0.9996222519829067 -- 0.9996222945968607
UPS 9 - SDT 3 - Subpainel 3 - PowerStrip 5 = 0.9996146978467553 -- 0.9996147429490374
UPS 1 - SDT 6 - Subpainel 3 - PowerStrip 5 = 0.9995888291029039 -- 0.9995888769449317
UPS 1 - SDT 3 - Subpainel 3 - PowerStrip 5 = 0.9995812747023167 -- 0.9995813253840217

UPS 9 - SDT 6 - Subpainel 8 - PowerStrip 0 = 0.9996298200536787 -- 0.9996298605637345
UPS 9 - SDT 3 - Subpainel 8 - PowerStrip 0 = 0.9996222657685049 -- 0.9996223087702016
UPS 1 - SDT 6 - Subpainel 8 - PowerStrip 0 = 0.9995963970439752 -- 0.9995964425813622
UPS 1 - SDT 3 - Subpainel 8 - PowerStrip 0 = 0.9995888427298806 -- 0.9995888910195412


O melhor resultado foi UPS 9 - SDT 6 - Subpainel 9 - PowerStrip 2 = 0.9996398883187864

CONSTRUÍDO COM SUCESSO (tempo total: 6 segundos)