UPS 8 - UPS 8 - SDT 7 - SDT 7 - Subpainel 3 - PowerStrip 9 - STS 5 = 0.9995292042023671 -- 0.9995331807701416
UPS 8 - UPS 8 - SDT 7 - SDT 7 - Subpainel 3 - PowerStrip 2 - STS 5 = 0.9995259259395584 -- 0.9995299235364437
UPS 8 - UPS 8 - SDT 7 - SDT 7 - Subpainel 1 - PowerStrip 9 - STS 5 = 0.9995253803693733 -- 0.9995293814529382
UPS 8 - UPS 8 - SDT 7 - SDT 7 - Subpainel 1 - PowerStrip 2 - STS 5 = 0.9995221002014462 -- 0.9995261231683272

UPS 2 - UPS 2 - SDT 5 - SDT 5 - Subpainel 3 - PowerStrip 9 - STS 2 = 0.9993396807009308 -- 0.9993469654202851
UPS 2 - UPS 2 - SDT 5 - SDT 5 - Subpainel 3 - PowerStrip 2 - STS 2 = 0.9993363960795962 -- 0.9993437089846603
UPS 2 - UPS 2 - SDT 5 - SDT 5 - Subpainel 1 - PowerStrip 9 - STS 2 = 0.9993358487925632 -- 0.9993431664693733
UPS 2 - UPS 2 - SDT 5 - SDT 5 - Subpainel 1 - PowerStrip 2 - STS 2 = 0.999332562710236 -- 0.999339909273539

UPS 8 - UPS 8 - SDT 1 - SDT 1 - Subpainel 3 - PowerStrip 9 - STS 1 = 0.9995852373180778 -- 0.9995889686690013
UPS 8 - UPS 8 - SDT 1 - SDT 1 - Subpainel 3 - PowerStrip 2 - STS 1 = 0.9995819453466048 -- 0.9995857112226346
UPS 8 - UPS 8 - SDT 1 - SDT 1 - Subpainel 1 - PowerStrip 9 - STS 1 = 0.9995814124525242 -- 0.9995851686644943
UPS 8 - UPS 8 - SDT 1 - SDT 1 - Subpainel 1 - PowerStrip 2 - STS 1 = 0.9995781326983076 -- 0.9995819109003258

UPS 1 - UPS 1 - SDT 7 - SDT 7 - Subpainel 3 - PowerStrip 9 - STS 2 = 0.9993436512752417 -- 0.9993480350854586
UPS 1 - UPS 1 - SDT 7 - SDT 7 - Subpainel 3 - PowerStrip 2 - STS 2 = 0.999340376742471 -- 0.9993447760228985
UPS 1 - UPS 1 - SDT 7 - SDT 7 - Subpainel 1 - PowerStrip 9 - STS 2 = 0.9993398290573995 -- 0.9993442471968342
UPS 1 - UPS 1 - SDT 7 - SDT 7 - Subpainel 1 - PowerStrip 2 - STS 2 = 0.9993365521933314 -- 0.9993409783902565

UPS 1 - UPS 1 - SDT 7 - SDT 7 - Subpainel 3 - PowerStrip 9 - STS 3 = 0.9993266265906827 -- 0.9993310488564611
UPS 1 - UPS 1 - SDT 7 - SDT 7 - Subpainel 3 - PowerStrip 2 - STS 3 = 0.9993232959468654 -- 0.9993277920586621
UPS 1 - UPS 1 - SDT 7 - SDT 7 - Subpainel 1 - PowerStrip 9 - STS 3 = 0.9993227498936822 -- 0.9993272498130255
UPS 1 - UPS 1 - SDT 7 - SDT 7 - Subpainel 1 - PowerStrip 2 - STS 3 = 0.99931948137338 -- 0.9993239926933968

O melhor resultado foi UPS 8 - UPS 8 - SDT 1 - SDT 1 - Subpainel 3 - PowerStrip 9 - STS 1 = 0.9995852373180778