UPS 3 - UPS 3 - SDT 8 - SDT 8 - Subpainel 3 - PowerStrip 9 - STS 9 = 0.9998125928826586 ---- 0.9998132621911784
UPS 3 - UPS 3 - SDT 8 - SDT 8 - Subpainel 3 - PowerStrip 2 - STS 9 = 0.9998109469731077 ---- 0.9998116177059622
UPS 3 - UPS 3 - SDT 8 - SDT 8 - Subpainel 1 - PowerStrip 9 - STS 9 = 0.999810669028547 ---- 0.9998113429844219
UPS 3 - UPS 3 - SDT 8 - SDT 8 - Subpainel 1 - PowerStrip 2 - STS 9 = 0.9998090215633259 ---- 0.999809697091707

UPS 9 - UPS 9 - SDT 4 - SDT 4 - Subpainel 3 - PowerStrip 9 - STS 1 = 0.9997922487047204 ---- 0.9997928168310262
UPS 9 - UPS 9 - SDT 4 - SDT 4 - Subpainel 3 - PowerStrip 2 - STS 1 = 0.9997906016204082 ---- 0.9997911720875774
UPS 9 - UPS 9 - SDT 4 - SDT 4 - Subpainel 1 - PowerStrip 9 - STS 1 = 0.9997903265998851 ---- 0.9997909006063578
UPS 9 - UPS 9 - SDT 4 - SDT 4 - Subpainel 1 - PowerStrip 2 - STS 1 = 0.9997886796209787 ---- 0.9997892535406911

UPS 2 - UPS 2 - SDT 6 - SDT 6 - Subpainel 3 - PowerStrip 9 - STS 6 = 0.9996577376744489 ---- 0.9996586928186516
UPS 2 - UPS 2 - SDT 6 - SDT 6 - Subpainel 3 - PowerStrip 2 - STS 6 = 0.9996560843894167 ---- 0.999657047445282
UPS 2 - UPS 2 - SDT 6 - SDT 6 - Subpainel 1 - PowerStrip 9 - STS 6 = 0.9996558137364643 ---- 0.9996567736439559
UPS 2 - UPS 2 - SDT 6 - SDT 6 - Subpainel 1 - PowerStrip 2 - STS 6 = 0.9996541652474425 ---- 0.9996551301634841

UPS 0 - UPS 0 - SDT 2 - SDT 2 - Subpainel 3 - PowerStrip 9 - STS 8 = 0.9997542007127413 ---- 0.9997548999457324
UPS 0 - UPS 0 - SDT 2 - SDT 2 - Subpainel 3 - PowerStrip 2 - STS 8 = 0.9997525592777565 ---- 0.9997532585718115
UPS 0 - UPS 0 - SDT 2 - SDT 2 - Subpainel 1 - PowerStrip 9 - STS 8 = 0.999752283774764 ---- 0.9997529822934684
UPS 0 - UPS 0 - SDT 2 - SDT 2 - Subpainel 1 - PowerStrip 2 - STS 8 = 0.9997506365992483 ---- 0.9997513400872918

UPS 8 - UPS 8 - SDT 6 - SDT 6 - Subpainel 3 - PowerStrip 9 - STS 4 = 0.9997802225899819 ---- 0.9997808288673846
UPS 8 - UPS 8 - SDT 6 - SDT 6 - Subpainel 3 - PowerStrip 2 - STS 4 = 0.9997785743602557 ---- 0.9997791837292835
UPS 8 - UPS 8 - SDT 6 - SDT 6 - Subpainel 1 - PowerStrip 9 - STS 4 = 0.9997782978890797 ---- 0.9997789106556374
UPS 8 - UPS 8 - SDT 6 - SDT 6 - Subpainel 1 - PowerStrip 2 - STS 4 = 0.9997766533303237 ---- 0.9997772659131471

O melhor resultado foi UPS 3 - UPS 3 - SDT 8 - SDT 8 - Subpainel 3 - PowerStrip 9 - STS 9 = 0.9998125928826586