UPS 3 - UPS 3 - SDT 6 - SDT 6 - Subpainel 0 - Subpainel 0 - PowerStrip 9 - STS 0 = 0.9998438905989047
UPS 3 - UPS 3 - SDT 6 - SDT 6 - Subpainel 0 - Subpainel 0 - PowerStrip 2 - STS 0 = 0.9998422241343795
UPS 3 - UPS 3 - SDT 6 - SDT 6 - Subpainel 0 - Subpainel 0 - PowerStrip 9 - STS 9 = 0.9998305675004754
UPS 3 - UPS 3 - SDT 6 - SDT 6 - Subpainel 0 - Subpainel 0 - PowerStrip 2 - STS 9 = 0.9998289029503517

UPS 2 - UPS 2 - SDT 6 - SDT 6 - Subpainel 5 - Subpainel 5 - PowerStrip 9 - STS 0 = 0.9998441254728121
UPS 2 - UPS 2 - SDT 6 - SDT 6 - Subpainel 5 - Subpainel 5 - PowerStrip 2 - STS 0 = 0.9998424642436248
UPS 2 - UPS 2 - SDT 6 - SDT 6 - Subpainel 5 - Subpainel 5 - PowerStrip 9 - STS 9 = 0.9998308109498909
UPS 2 - UPS 2 - SDT 6 - SDT 6 - Subpainel 5 - Subpainel 5 - PowerStrip 2 - STS 9 = 0.9998291482660745

UPS 7 - UPS 7 - SDT 8 - SDT 8 - Subpainel 4 - Subpainel 4 - PowerStrip 9 - STS 0 = 0.9998443688224719
UPS 7 - UPS 7 - SDT 8 - SDT 8 - Subpainel 4 - Subpainel 4 - PowerStrip 2 - STS 0 = 1.0005875630840766
UPS 7 - UPS 7 - SDT 8 - SDT 8 - Subpainel 4 - Subpainel 4 - PowerStrip 9 - STS 9 = 0.9998310756299726
UPS 7 - UPS 7 - SDT 8 - SDT 8 - Subpainel 4 - Subpainel 4 - PowerStrip 2 - STS 9 = 0.9998294130871069

UPS 8 - UPS 8 - SDT 3 - SDT 3 - Subpainel 7 - Subpainel 7 - PowerStrip 9 - STS 0 = 0.9998450218809783
UPS 8 - UPS 8 - SDT 3 - SDT 3 - Subpainel 7 - Subpainel 7 - PowerStrip 2 - STS 0 = 0.9998433737448212
UPS 8 - UPS 8 - SDT 3 - SDT 3 - Subpainel 7 - Subpainel 7 - PowerStrip 9 - STS 9 = 0.9998317252364927
UPS 8 - UPS 8 - SDT 3 - SDT 3 - Subpainel 7 - Subpainel 7 - PowerStrip 2 - STS 9 = 0.9998300755593033

UPS 6 - UPS 6 - SDT 7 - SDT 7 - Subpainel 6 - Subpainel 6 - PowerStrip 9 - STS 0 = 0.9998437706068003
UPS 6 - UPS 6 - SDT 7 - SDT 7 - Subpainel 6 - Subpainel 6 - PowerStrip 2 - STS 0 = 0.9998421311480258
UPS 6 - UPS 6 - SDT 7 - SDT 7 - Subpainel 6 - Subpainel 6 - PowerStrip 9 - STS 9 = 0.9998304757036117
UPS 6 - UPS 6 - SDT 7 - SDT 7 - Subpainel 6 - Subpainel 6 - PowerStrip 2 - STS 9 = 0.999828738824363

