UPS 8 - UPS 8 - SDT 6 - SDT 6 - Subpainel 3 - Subpainel 3 - PowerStrip 9 - STS 0 = 0.9996789371552555 - 0.9996920697860783
UPS 8 - UPS 8 - SDT 6 - SDT 6 - Subpainel 3 - Subpainel 3 - PowerStrip 2 - STS 0 = 0.9996755937962774 - 0.999688846283788
UPS 8 - UPS 8 - SDT 6 - SDT 6 - Subpainel 3 - Subpainel 3 - PowerStrip 9 - STS 9 = 0.9996520901852043 - 0.999665958314573
UPS 8 - UPS 8 - SDT 6 - SDT 6 - Subpainel 3 - Subpainel 3 - PowerStrip 2 - STS 9 = 0.9996487702276343 - 0.9996627007205426

UPS 3 - UPS 3 - SDT 1 - SDT 1 - Subpainel 3 - Subpainel 3 - PowerStrip 9 - STS 0 = 0.9996638991786715 - 0.999686446729902
UPS 3 - UPS 3 - SDT 1 - SDT 1 - Subpainel 3 - Subpainel 3 - PowerStrip 2 - STS 0 = 0.9996605118162833 - 0.9996831913197162
UPS 3 - UPS 3 - SDT 1 - SDT 1 - Subpainel 3 - Subpainel 3 - PowerStrip 9 - STS 9 = 0.9996367286077252 - 0.9996603017405289
UPS 3 - UPS 3 - SDT 1 - SDT 1 - Subpainel 3 - Subpainel 3 - PowerStrip 2 - STS 9 = 0.9996333395121281 - 0.9996570443438598

UPS 0 - UPS 0 - SDT 7 - SDT 7 - Subpainel 1 - Subpainel 1 - PowerStrip 9 - STS 0 = 0.9996764799441017 - 0.9996912208008545
UPS 0 - UPS 0 - SDT 7 - SDT 7 - Subpainel 1 - Subpainel 1 - PowerStrip 2 - STS 0 = 0.9996731245130869 - 0.9996879622002246
UPS 0 - UPS 0 - SDT 7 - SDT 7 - Subpainel 1 - Subpainel 1 - PowerStrip 9 - STS 9 = 0.9996496275010207 - 0.9996650733614529
UPS 0 - UPS 0 - SDT 7 - SDT 7 - Subpainel 1 - Subpainel 1 - PowerStrip 2 - STS 9 = 0.9996462176035512 - 0.9996618151323315

UPS 7 - UPS 7 - SDT 7 - SDT 7 - Subpainel 4 - Subpainel 4 - PowerStrip 9 - STS 0 = 0.9996704447078899 - 0.9996889777808279
UPS 7 - UPS 7 - SDT 7 - SDT 7 - Subpainel 4 - Subpainel 4 - PowerStrip 2 - STS 0 = 0.9996670715167205 - 0.9996857329549288
UPS 7 - UPS 7 - SDT 7 - SDT 7 - Subpainel 4 - Subpainel 4 - PowerStrip 9 - STS 9 = 0.9996434016061052 - 0.9996628467971291
UPS 7 - UPS 7 - SDT 7 - SDT 7 - Subpainel 4 - Subpainel 4 - PowerStrip 2 - STS 9 = 0.9996400313132688 - 0.9996595722095517

UPS 0 - UPS 0 - SDT 0 - SDT 0 - Subpainel 1 - Subpainel 1 - PowerStrip 9 - STS 0 = 0.9996726917129013 - 0.9996898248793455
UPS 0 - UPS 0 - SDT 0 - SDT 0 - Subpainel 1 - Subpainel 1 - PowerStrip 2 - STS 0 = 0.9996693276107312 - 0.99968656679286
UPS 0 - UPS 0 - SDT 0 - SDT 0 - Subpainel 1 - Subpainel 1 - PowerStrip 9 - STS 9 = 0.9996456969471846 - 0.9996636762649435
UPS 0 - UPS 0 - SDT 0 - SDT 0 - Subpainel 1 - Subpainel 1 - PowerStrip 2 - STS 9 = 0.9996423335421867 - 0.9996604185146196

O melhor resultado foi UPS 8 - UPS 8 - SDT 6 - SDT 6 - Subpainel 3 - Subpainel 3 - PowerStrip 9 - STS 0 = 0.9996789371552555

CONSTRUÍDO COM SUCESSO (tempo total: 141 minutos 25 segundos)