UPS 9 - UPS 9 - SDT 6 - SDT 6 - Subpainel 6 - Subpainel 6 - PowerStrip 2 - PowerStrip 2 = 0.9999996098730694 --- 0.9999997493221231
UPS 9 - UPS 9 - SDT 3 - SDT 3 - Subpainel 6 - Subpainel 6 - PowerStrip 2 - PowerStrip 2 = 0.9999995958554613 --- 0.9999997434842052
UPS 1 - UPS 1 - SDT 6 - SDT 6 - Subpainel 6 - Subpainel 6 - PowerStrip 2 - PowerStrip 2 = 0.999999561718245 --- 0.9999997221337306
UPS 1 - UPS 1 - SDT 3 - SDT 3 - Subpainel 6 - Subpainel 6 - PowerStrip 2 - PowerStrip 2 = 0.9999995512238925 --- 0.9999997148714412

UPS 9 - UPS 9 - SDT 6 - SDT 6 - Subpainel 5 - Subpainel 5 - PowerStrip 2 - PowerStrip 2 = 0.9999995278356049 --- 0.9999997018040021
UPS 9 - UPS 9 - SDT 3 - SDT 3 - Subpainel 5 - Subpainel 5 - PowerStrip 2 - PowerStrip 2 = 0.9999995214347226 --- 0.9999996957396408
UPS 1 - UPS 1 - SDT 6 - SDT 6 - Subpainel 5 - Subpainel 5 - PowerStrip 2 - PowerStrip 2 = 0.9999994907836306 --- 0.9999996759932903
UPS 1 - UPS 1 - SDT 3 - SDT 3 - Subpainel 5 - Subpainel 5 - PowerStrip 2 - PowerStrip 2 = 0.9999994763912404 --- 0.9999996698158529

UPS 9 - UPS 9 - SDT 6 - SDT 6 - Subpainel 8 - Subpainel 8 - PowerStrip 7 - PowerStrip 7 = 0.9999995890312349 --- 0.9999997361777381
UPS 9 - UPS 9 - SDT 3 - SDT 3 - Subpainel 8 - Subpainel 8 - PowerStrip 7 - PowerStrip 7 = 0.9999995777347112 --- 0.9999997319867783
UPS 1 - UPS 1 - SDT 6 - SDT 6 - Subpainel 8 - Subpainel 8 - PowerStrip 7 - PowerStrip 7 = 0.9999995418064335 --- 0.9999997082744604
UPS 1 - UPS 1 - SDT 3 - SDT 3 - Subpainel 8 - Subpainel 8 - PowerStrip 7 - PowerStrip 7 = 0.9999995318371045 --- 0.9999997026811293

UPS 9 - UPS 9 - SDT 6 - SDT 6 - Subpainel 7 - Subpainel 7 - PowerStrip 9 - PowerStrip 9 = 0.9999996063589532 --- 0.999999747469233
UPS 9 - UPS 9 - SDT 3 - SDT 3 - Subpainel 7 - Subpainel 7 - PowerStrip 9 - PowerStrip 9 = 0.9999995953484047 --- 0.9999997417623562
UPS 1 - UPS 1 - SDT 6 - SDT 6 - Subpainel 7 - Subpainel 7 - PowerStrip 9 - PowerStrip 9 = 0.9999995595812907 --- 0.9999997197430941
UPS 1 - UPS 1 - SDT 3 - SDT 3 - Subpainel 7 - Subpainel 7 - PowerStrip 9 - PowerStrip 9 = 0.9999995456101857 --- 0.9999997129507541

UPS 9 - UPS 9 - SDT 6 - SDT 6 - Subpainel 0 - Subpainel 0 - PowerStrip 6 - PowerStrip 6 = 0.9999995323536586 --- 0.9999997046146561
UPS 9 - UPS 9 - SDT 3 - SDT 3 - Subpainel 0 - Subpainel 0 - PowerStrip 6 - PowerStrip 6 = 0.9999995258710642 --- 0.9999996992140773
UPS 1 - UPS 1 - SDT 6 - SDT 6 - Subpainel 0 - Subpainel 0 - PowerStrip 6 - PowerStrip 6 = 0.9999994928795366 --- 0.9999996776135869
UPS 1 - UPS 1 - SDT 3 - SDT 3 - Subpainel 0 - Subpainel 0 - PowerStrip 6 - PowerStrip 6 = 0.9999994783263508 --- 0.9999996662097318

O melhor resultado foi O melhor resultado foi 

CONSTRUÍDO COM SUCESSO (tempo total: 815 minutos 58 segundos)
