UPS 9 - UPS 9 - SDT 6 - SDT 6 - Subpainel 4 - Subpainel 4 - PowerStrip 6 - PowerStrip 6 = 0.9999994312262003
UPS 9 - UPS 9 - SDT 3 - SDT 3 - Subpainel 4 - Subpainel 4 - PowerStrip 6 - PowerStrip 6 = 0.9999994150063148
UPS 1 - UPS 1 - SDT 6 - SDT 6 - Subpainel 4 - Subpainel 4 - PowerStrip 6 - PowerStrip 6 = 0.9999993794264844
UPS 1 - UPS 1 - SDT 3 - SDT 3 - Subpainel 4 - Subpainel 4 - PowerStrip 6 - PowerStrip 6 = 0.99999937012219

UPS 9 - UPS 9 - SDT 6 - SDT 6 - Subpainel 6 - Subpainel 6 - PowerStrip 2 - PowerStrip 2 = 0.999999533424295
UPS 9 - UPS 9 - SDT 3 - SDT 3 - Subpainel 6 - Subpainel 6 - PowerStrip 2 - PowerStrip 2 = 0.999999528020923
UPS 1 - UPS 1 - SDT 6 - SDT 6 - Subpainel 6 - Subpainel 6 - PowerStrip 2 - PowerStrip 2 = 0.9999994860125012
UPS 1 - UPS 1 - SDT 3 - SDT 3 - Subpainel 6 - Subpainel 6 - PowerStrip 2 - PowerStrip 2 = 0.9999994759324585

UPS 9 - UPS 9 - SDT 6 - SDT 6 - Subpainel 2 - Subpainel 2 - PowerStrip 3 - PowerStrip 3 = 0.9999993665932895
UPS 9 - UPS 9 - SDT 3 - SDT 3 - Subpainel 2 - Subpainel 2 - PowerStrip 3 - PowerStrip 3 = 0.9999994640050175
UPS 1 - UPS 1 - SDT 6 - SDT 6 - Subpainel 2 - Subpainel 2 - PowerStrip 3 - PowerStrip 3 = 0.9999994221330792
UPS 1 - UPS 1 - SDT 3 - SDT 3 - Subpainel 2 - Subpainel 2 - PowerStrip 3 - PowerStrip 3 = 0.9999994174421037

UPS 9 - UPS 9 - SDT 6 - SDT 6 - Subpainel 8 - Subpainel 8 - PowerStrip 3 - PowerStrip 3 = 0.9999995230425291
UPS 9 - UPS 9 - SDT 3 - SDT 3 - Subpainel 8 - Subpainel 8 - PowerStrip 3 - PowerStrip 3 = 0.9999995129180289
UPS 1 - UPS 1 - SDT 6 - SDT 6 - Subpainel 8 - Subpainel 8 - PowerStrip 3 - PowerStrip 3 = 0.9999994748978485
UPS 1 - UPS 1 - SDT 3 - SDT 3 - Subpainel 8 - Subpainel 8 - PowerStrip 3 - PowerStrip 3 = 0.9999994658222596

UPS 9 - UPS 9 - SDT 6 - SDT 6 - Subpainel 3 - Subpainel 3 - PowerStrip 3 - PowerStrip 3 = 0.9999995310054525
UPS 9 - UPS 9 - SDT 3 - SDT 3 - Subpainel 3 - Subpainel 3 - PowerStrip 3 - PowerStrip 3 = 0.999999519232873
UPS 1 - UPS 1 - SDT 6 - SDT 6 - Subpainel 3 - Subpainel 3 - PowerStrip 3 - PowerStrip 3 = 0.9999994880634128
UPS 1 - UPS 1 - SDT 3 - SDT 3 - Subpainel 3 - Subpainel 3 - PowerStrip 3 - PowerStrip 3 = 0.9999994773866594

